﻿Log file open, 05/12/19 19:26:20
LogWindows: Failed to load 'aqProf.dll' (GetLastError=126)
LogWindows: File 'aqProf.dll' does not exist
LogWindows: Failed to load 'VtuneApi.dll' (GetLastError=126)
LogWindows: File 'VtuneApi.dll' does not exist
LogWindows: Failed to load 'VtuneApi32e.dll' (GetLastError=126)
LogWindows: File 'VtuneApi32e.dll' does not exist
LogConsoleResponse: Display: Failed to find resolution value strings in scalability ini. Falling back to default.
LogInit: Display: Running engine for game: Dazle
LogPakFile: Registered encryption key '00000000000000000000000000000000': 0 pak files mounted, 0 remain pending
LogPlatformFile: Not using cached read wrapper
LogTaskGraph: Started task graph with 5 named threads and 35 total threads with 3 sets of task threads.
LogStats: Stats thread started at 0.395738
LogD3D11RHI: Loaded GFSDK_Aftermath_Lib.x64.dll
LogICUInternationalization: ICU TimeZone Detection - Raw Offset: +9:00, Platform Override: ''
LogPluginManager: Mounting plugin Paper2D
LogPluginManager: Mounting plugin AISupport
LogPluginManager: Mounting plugin LightPropagationVolume
LogPluginManager: Mounting plugin ActorLayerUtilities
LogPluginManager: Mounting plugin CLionSourceCodeAccess
LogPluginManager: Mounting plugin CodeLiteSourceCodeAccess
LogPluginManager: Mounting plugin GitSourceControl
LogPluginManager: Mounting plugin KDevelopSourceCodeAccess
LogPluginManager: Mounting plugin NullSourceCodeAccess
LogPluginManager: Mounting plugin PerforceSourceControl
LogPluginManager: Mounting plugin SubversionSourceControl
LogPluginManager: Mounting plugin UObjectPlugin
LogPluginManager: Mounting plugin VisualStudioCodeSourceCodeAccess
LogPluginManager: Mounting plugin VisualStudioSourceCodeAccess
LogPluginManager: Mounting plugin XCodeSourceCodeAccess
LogPluginManager: Mounting plugin AssetManagerEditor
LogPluginManager: Mounting plugin CryptoKeys
LogPluginManager: Mounting plugin DataValidation
LogPluginManager: Mounting plugin FacialAnimation
LogPluginManager: Mounting plugin GameplayTagsEditor
LogPluginManager: Mounting plugin MacGraphicsSwitching
LogPluginManager: Mounting plugin MeshEditor
LogPluginManager: Mounting plugin MobileLauncherProfileWizard
LogPluginManager: Mounting plugin PluginBrowser
LogPluginManager: Mounting plugin SpeedTreeImporter
LogPluginManager: Mounting plugin DatasmithContent
LogPluginManager: Mounting plugin VariantManagerContent
LogPluginManager: Mounting plugin AlembicImporter
LogPluginManager: Mounting plugin AppleImageUtils
LogPluginManager: Mounting plugin AppleVision
LogPluginManager: Mounting plugin BackChannel
LogPluginManager: Mounting plugin CharacterAI
LogPluginManager: Mounting plugin GeometryCache
LogPluginManager: Mounting plugin HTML5Networking
LogPluginManager: Mounting plugin ProxyLODPlugin
LogPluginManager: Mounting plugin MagicLeap
LogPluginManager: Mounting plugin MagicLeapMedia
LogPluginManager: Mounting plugin AndroidMedia
LogPluginManager: Mounting plugin AvfMedia
LogPluginManager: Mounting plugin ImgMedia
LogPluginManager: Mounting plugin LinearTimecode
LogPluginManager: Mounting plugin MediaCompositing
LogPluginManager: Mounting plugin MediaPlayerEditor
LogPluginManager: Mounting plugin WebMMedia
LogPluginManager: Mounting plugin WmfMedia
LogPluginManager: Mounting plugin TcpMessaging
LogPluginManager: Mounting plugin UdpMessaging
LogPluginManager: Mounting plugin ActorSequence
LogPluginManager: Mounting plugin LevelSequenceEditor
LogPluginManager: Mounting plugin MatineeToLevelSequence
LogPluginManager: Mounting plugin NetcodeUnitTest
LogPluginManager: Mounting plugin NUTUnrealEngine4
LogPluginManager: Mounting plugin OnlineSubsystemGooglePlay
LogPluginManager: Mounting plugin OnlineSubsystemIOS
LogPluginManager: Mounting plugin OnlineSubsystem
LogPluginManager: Mounting plugin OnlineSubsystemNull
LogPluginManager: Mounting plugin OnlineSubsystemUtils
LogPluginManager: Mounting plugin LauncherChunkInstaller
LogPluginManager: Mounting plugin AndroidDeviceProfileSelector
LogPluginManager: Mounting plugin AndroidMoviePlayer
LogPluginManager: Mounting plugin AndroidPermission
LogPluginManager: Mounting plugin AppleMoviePlayer
LogPluginManager: Mounting plugin ArchVisCharacter
LogPluginManager: Mounting plugin AudioCapture
LogPluginManager: Mounting plugin CableComponent
LogPluginManager: Mounting plugin CustomMeshComponent
LogPluginManager: Mounting plugin EditableMesh
LogPluginManager: Mounting plugin ExampleDeviceProfileSelector
LogPluginManager: Mounting plugin Firebase
LogPluginManager: Mounting plugin GoogleCloudMessaging
LogPluginManager: Mounting plugin IOSDeviceProfileSelector
LogPluginManager: Mounting plugin LinuxDeviceProfileSelector
LogPluginManager: Mounting plugin LocationServicesBPLibrary
LogPluginManager: Mounting plugin MobilePatchingUtils
LogPluginManager: Mounting plugin OculusVR
LogPluginManager: Mounting plugin PhysXVehicles
LogPluginManager: Mounting plugin ProceduralMeshComponent
LogPluginManager: Mounting plugin RuntimePhysXCooking
LogPluginManager: Mounting plugin SteamVR
LogPluginManager: Mounting plugin WebMMoviePlayer
LogPluginManager: Mounting plugin WindowsMoviePlayer
LogStreaming: Display: Took  0.067s to configure plugins.
LogInit: Using libcurl 7.55.1-DEV
LogInit:  - built for x86_64-pc-win32
LogInit:  - supports SSL with OpenSSL/1.0.2h
LogInit:  - supports HTTP deflate (compression) using libz 1.2.8
LogInit:  - other features:
LogInit:      CURL_VERSION_SSL
LogInit:      CURL_VERSION_LIBZ
LogInit:      CURL_VERSION_IPV6
LogInit:      CURL_VERSION_ASYNCHDNS
LogInit:      CURL_VERSION_LARGEFILE
LogInit:      CURL_VERSION_IDN
LogInit:  CurlRequestOptions (configurable via config and command line):
LogInit:  - bVerifyPeer = true  - Libcurl will verify peer certificate
LogInit:  - bUseHttpProxy = false  - Libcurl will NOT use HTTP proxy
LogInit:  - bDontReuseConnections = false  - Libcurl will reuse connections
LogInit:  - MaxHostConnections = 16  - Libcurl will limit the number of connections to a host
LogInit:  - LocalHostAddr = Default
LogInit:  - BufferSize = 65536
LogInit: WinSock: version 1.1 (2.2), MaxSocks=32767, MaxUdp=65467
LogInit: Build: ++UE4+Release-4.21-CL-4753647
LogInit: Engine Version: 4.21.2-4753647+++UE4+Release-4.21
LogInit: Compatible Engine Version: 4.21.0-4541578+++UE4+Release-4.21
LogInit: Net CL: 4541578
LogInit: OS: Windows 10 (), CPU: Intel(R) Core(TM) i7-8700K CPU @ 3.70GHz, GPU: NVIDIA GeForce GTX 1070
LogInit: Compiled (64-bit): Jan 19 2019 02:07:31
LogInit: Compiled with Visual C++: 19.13.26129.00
LogInit: Build Configuration: Development
LogInit: Branch Name: ++UE4+Release-4.21
LogInit: Command Line: 
LogInit: Base Directory: C:/Program Files (x86)/Epic Games/UE_4.21/Engine/Binaries/Win64/
LogInit: Installed Engine Build: 1
LogDevObjectVersion: Number of dev versions registered: 22
LogDevObjectVersion:   Dev-Blueprints (B0D832E4-1F89-4F0D-ACCF-7EB736FD4AA2): 10
LogDevObjectVersion:   Dev-Build (E1C64328-A22C-4D53-A36C-8E866417BD8C): 0
LogDevObjectVersion:   Dev-Core (375EC13C-06E4-48FB-B500-84F0262A717E): 2
LogDevObjectVersion:   Dev-Editor (E4B068ED-F494-42E9-A231-DA0B2E46BB41): 26
LogDevObjectVersion:   Dev-Framework (CFFC743F-43B0-4480-9391-14DF171D2073): 34
LogDevObjectVersion:   Dev-Mobile (B02B49B5-BB20-44E9-A304-32B752E40360): 2
LogDevObjectVersion:   Dev-Networking (A4E4105C-59A1-49B5-A7C5-40C4547EDFEE): 0
LogDevObjectVersion:   Dev-Online (39C831C9-5AE6-47DC-9A44-9C173E1C8E7C): 0
LogDevObjectVersion:   Dev-Physics (78F01B33-EBEA-4F98-B9B4-84EACCB95AA2): 0
LogDevObjectVersion:   Dev-Platform (6631380F-2D4D-43E0-8009-CF276956A95A): 0
LogDevObjectVersion:   Dev-Rendering (12F88B9F-8875-4AFC-A67C-D90C383ABD29): 27
LogDevObjectVersion:   Dev-Sequencer (7B5AE74C-D270-4C10-A958-57980B212A5A): 9
LogDevObjectVersion:   Dev-VR (D7296918-1DD6-4BDD-9DE2-64A83CC13884): 2
LogDevObjectVersion:   Dev-LoadTimes (C2A15278-BFE7-4AFE-6C17-90FF531DF755): 1
LogDevObjectVersion:   Private-Geometry (6EACA3D4-40EC-4CC1-B786-8BED09428FC5): 3
LogDevObjectVersion:   Dev-AnimPhys (29E575DD-E0A3-4627-9D10-D276232CDCEA): 17
LogDevObjectVersion:   Dev-Anim (AF43A65D-7FD3-4947-9873-3E8ED9C1BB05): 2
LogDevObjectVersion:   Dev-ReflectionCapture (6B266CEC-1EC7-4B8F-A30B-E4D90942FC07): 1
LogDevObjectVersion:   Dev-Automation (0DF73D61-A23F-47EA-B727-89E90C41499A): 1
LogDevObjectVersion:   FortniteMain (601D1886-AC64-4F84-AA16-D3DE0DEAC7D6): 17
LogDevObjectVersion:   Dev-Enterprise (9DFFBCD6-494F-0158-E221-12823C92A888): 4
LogDevObjectVersion:   Dev-Niagara (F2AED0AC-9AFE-416F-8664-AA7FFA26D6FC): 1
LogStreaming: Display: Took  0.001s to delete old logs.
LogInit: Presizing for max 8388607 objects, including 0 objects not considered by GC, pre-allocating 0 bytes for permanent pool.
LogInit: Object subsystem initialized
LogConfig: Setting CVar [[con.DebugEarlyDefault:1]]
LogConfig: Setting CVar [[r.setres:1280x720]]
[2019.05.12-10.26.20:353][  0]LogConfig: Setting CVar [[r.VSync:0]]
[2019.05.12-10.26.20:353][  0]LogConfig: Setting CVar [[r.RHICmdBypass:0]]
[2019.05.12-10.26.20:353][  0]LogConfig: Applying CVar settings from Section [/Script/Engine.RendererSettings] File [E:/Dazle/Saved/Config/Windows/Engine.ini]
[2019.05.12-10.26.20:353][  0]LogConfig: Setting CVar [[r.GPUCrashDebugging:0]]
[2019.05.12-10.26.20:353][  0]LogConfig: Applying CVar settings from Section [/Script/Engine.RendererOverrideSettings] File [E:/Dazle/Saved/Config/Windows/Engine.ini]
[2019.05.12-10.26.20:353][  0]LogConfig: Applying CVar settings from Section [/Script/Engine.StreamingSettings] File [E:/Dazle/Saved/Config/Windows/Engine.ini]
[2019.05.12-10.26.20:353][  0]LogConfig: Setting CVar [[s.MinBulkDataSizeForAsyncLoading:131072]]
[2019.05.12-10.26.20:353][  0]LogConfig: Setting CVar [[s.AsyncLoadingThreadEnabled:0]]
[2019.05.12-10.26.20:353][  0]LogConfig: Setting CVar [[s.EventDrivenLoaderEnabled:1]]
[2019.05.12-10.26.20:353][  0]LogConfig: Setting CVar [[s.WarnIfTimeLimitExceeded:0]]
[2019.05.12-10.26.20:353][  0]LogConfig: Setting CVar [[s.TimeLimitExceededMultiplier:1.5]]
[2019.05.12-10.26.20:353][  0]LogConfig: Setting CVar [[s.TimeLimitExceededMinTime:0.005]]
[2019.05.12-10.26.20:353][  0]LogConfig: Setting CVar [[s.UseBackgroundLevelStreaming:1]]
[2019.05.12-10.26.20:353][  0]LogConfig: Setting CVar [[s.PriorityAsyncLoadingExtraTime:15.0]]
[2019.05.12-10.26.20:353][  0]LogConfig: Setting CVar [[s.LevelStreamingActorsUpdateTimeLimit:5.0]]
[2019.05.12-10.26.20:353][  0]LogConfig: Setting CVar [[s.PriorityLevelStreamingActorsUpdateExtraTime:5.0]]
[2019.05.12-10.26.20:353][  0]LogConfig: Setting CVar [[s.LevelStreamingComponentsRegistrationGranularity:10]]
[2019.05.12-10.26.20:353][  0]LogConfig: Setting CVar [[s.UnregisterComponentsTimeLimit:1.0]]
[2019.05.12-10.26.20:353][  0]LogConfig: Setting CVar [[s.LevelStreamingComponentsUnregistrationGranularity:5]]
[2019.05.12-10.26.20:353][  0]LogConfig: Applying CVar settings from Section [/Script/Engine.GarbageCollectionSettings] File [E:/Dazle/Saved/Config/Windows/Engine.ini]
[2019.05.12-10.26.20:353][  0]LogConfig: Setting CVar [[gc.MaxObjectsNotConsideredByGC:1]]
[2019.05.12-10.26.20:353][  0]LogConfig: Setting CVar [[gc.SizeOfPermanentObjectPool:0]]
[2019.05.12-10.26.20:353][  0]LogConfig: Setting CVar [[gc.FlushStreamingOnGC:0]]
[2019.05.12-10.26.20:353][  0]LogConfig: Setting CVar [[gc.NumRetriesBeforeForcingGC:10]]
[2019.05.12-10.26.20:353][  0]LogConfig: Setting CVar [[gc.AllowParallelGC:1]]
[2019.05.12-10.26.20:353][  0]LogConfig: Setting CVar [[gc.TimeBetweenPurgingPendingKillObjects:61.1]]
[2019.05.12-10.26.20:353][  0]LogConfig: Setting CVar [[gc.MaxObjectsInEditor:8388607]]
[2019.05.12-10.26.20:353][  0]LogConfig: Setting CVar [[gc.IncrementalBeginDestroyEnabled:1]]
[2019.05.12-10.26.20:353][  0]LogConfig: Setting CVar [[gc.CreateGCClusters:1]]
[2019.05.12-10.26.20:353][  0]LogConfig: Setting CVar [[gc.MergeGCClusters:0]]
[2019.05.12-10.26.20:353][  0]LogConfig: Setting CVar [[gc.MinGCClusterSize:5]]
[2019.05.12-10.26.20:353][  0]LogConfig: Setting CVar [[gc.ActorClusteringEnabled:0]]
[2019.05.12-10.26.20:353][  0]LogConfig: Setting CVar [[gc.BlueprintClusteringEnabled:0]]
[2019.05.12-10.26.20:353][  0]LogConfig: Setting CVar [[gc.UseDisregardForGCOnDedicatedServers:0]]
[2019.05.12-10.26.20:353][  0]LogConfig: Applying CVar settings from Section [/Script/Engine.NetworkSettings] File [E:/Dazle/Saved/Config/Windows/Engine.ini]
[2019.05.12-10.26.20:353][  0]LogConfig: Applying CVar settings from Section [/Script/UnrealEd.CookerSettings] File [E:/Dazle/Saved/Config/Windows/Engine.ini]
[2019.05.12-10.26.20:359][  0]LogConfig: Applying CVar settings from Section [ViewDistanceQuality@3] File [E:/Dazle/Saved/Config/Windows/Scalability.ini]
[2019.05.12-10.26.20:359][  0]LogConfig: Setting CVar [[r.SkeletalMeshLODBias:0]]
[2019.05.12-10.26.20:359][  0]LogConfig: Setting CVar [[r.ViewDistanceScale:1.0]]
[2019.05.12-10.26.20:359][  0]LogConfig: Applying CVar settings from Section [AntiAliasingQuality@3] File [E:/Dazle/Saved/Config/Windows/Scalability.ini]
[2019.05.12-10.26.20:359][  0]LogConfig: Setting CVar [[r.PostProcessAAQuality:4]]
[2019.05.12-10.26.20:359][  0]LogConfig: Applying CVar settings from Section [ShadowQuality@3] File [E:/Dazle/Saved/Config/Windows/Scalability.ini]
[2019.05.12-10.26.20:359][  0]LogConfig: Setting CVar [[r.LightFunctionQuality:1]]
[2019.05.12-10.26.20:359][  0]LogConfig: Setting CVar [[r.ShadowQuality:5]]
[2019.05.12-10.26.20:359][  0]LogConfig: Setting CVar [[r.Shadow.CSM.MaxCascades:10]]
[2019.05.12-10.26.20:359][  0]LogConfig: Setting CVar [[r.Shadow.MaxResolution:2048]]
[2019.05.12-10.26.20:359][  0]LogConfig: Setting CVar [[r.Shadow.MaxCSMResolution:2048]]
[2019.05.12-10.26.20:359][  0]LogConfig: Setting CVar [[r.Shadow.RadiusThreshold:0.01]]
[2019.05.12-10.26.20:359][  0]LogConfig: Setting CVar [[r.Shadow.DistanceScale:1.0]]
[2019.05.12-10.26.20:359][  0]LogConfig: Setting CVar [[r.Shadow.CSM.TransitionScale:1.0]]
[2019.05.12-10.26.20:359][  0]LogConfig: Setting CVar [[r.Shadow.PreShadowResolutionFactor:1.0]]
[2019.05.12-10.26.20:359][  0]LogConfig: Setting CVar [[r.DistanceFieldShadowing:1]]
[2019.05.12-10.26.20:359][  0]LogConfig: Setting CVar [[r.DistanceFieldAO:1]]
[2019.05.12-10.26.20:359][  0]LogConfig: Setting CVar [[r.AOQuality:2]]
[2019.05.12-10.26.20:359][  0]LogConfig: Setting CVar [[r.VolumetricFog:1]]
[2019.05.12-10.26.20:359][  0]LogConfig: Setting CVar [[r.VolumetricFog.GridPixelSize:8]]
[2019.05.12-10.26.20:359][  0]LogConfig: Setting CVar [[r.VolumetricFog.GridSizeZ:128]]
[2019.05.12-10.26.20:359][  0]LogConfig: Setting CVar [[r.VolumetricFog.HistoryMissSupersampleCount:4]]
[2019.05.12-10.26.20:359][  0]LogConfig: Setting CVar [[r.LightMaxDrawDistanceScale:1]]
[2019.05.12-10.26.20:359][  0]LogConfig: Setting CVar [[r.CapsuleShadows:1]]
[2019.05.12-10.26.20:359][  0]LogConfig: Applying CVar settings from Section [PostProcessQuality@3] File [E:/Dazle/Saved/Config/Windows/Scalability.ini]
[2019.05.12-10.26.20:359][  0]LogConfig: Setting CVar [[r.MotionBlurQuality:4]]
[2019.05.12-10.26.20:359][  0]LogConfig: Setting CVar [[r.AmbientOcclusionMipLevelFactor:0.4]]
[2019.05.12-10.26.20:359][  0]LogConfig: Setting CVar [[r.AmbientOcclusionMaxQuality:100]]
[2019.05.12-10.26.20:359][  0]LogConfig: Setting CVar [[r.AmbientOcclusionLevels:-1]]
[2019.05.12-10.26.20:359][  0]LogConfig: Setting CVar [[r.AmbientOcclusionRadiusScale:1.0]]
[2019.05.12-10.26.20:359][  0]LogConfig: Setting CVar [[r.DepthOfFieldQuality:2]]
[2019.05.12-10.26.20:359][  0]LogConfig: Setting CVar [[r.RenderTargetPoolMin:400]]
[2019.05.12-10.26.20:359][  0]LogConfig: Setting CVar [[r.LensFlareQuality:2]]
[2019.05.12-10.26.20:359][  0]LogConfig: Setting CVar [[r.SceneColorFringeQuality:1]]
[2019.05.12-10.26.20:359][  0]LogConfig: Setting CVar [[r.EyeAdaptationQuality:2]]
[2019.05.12-10.26.20:359][  0]LogConfig: Setting CVar [[r.BloomQuality:5]]
[2019.05.12-10.26.20:359][  0]LogConfig: Setting CVar [[r.FastBlurThreshold:100]]
[2019.05.12-10.26.20:359][  0]LogConfig: Setting CVar [[r.Upscale.Quality:3]]
[2019.05.12-10.26.20:359][  0]LogConfig: Setting CVar [[r.Tonemapper.GrainQuantization:1]]
[2019.05.12-10.26.20:359][  0]LogConfig: Setting CVar [[r.LightShaftQuality:1]]
[2019.05.12-10.26.20:359][  0]LogConfig: Setting CVar [[r.Filter.SizeScale:1]]
[2019.05.12-10.26.20:359][  0]LogConfig: Setting CVar [[r.Tonemapper.Quality:5]]
[2019.05.12-10.26.20:359][  0]LogConfig: Setting CVar [[r.DOF.Gather.AccumulatorQuality:1        ; higher gathering accumulator quality]]
[2019.05.12-10.26.20:359][  0]LogConfig: Setting CVar [[r.DOF.Gather.PostfilterMethod:1          ; Median3x3 postfilering method]]
[2019.05.12-10.26.20:359][  0]LogConfig: Setting CVar [[r.DOF.Gather.EnableBokehSettings:0       ; no bokeh simulation when gathering]]
[2019.05.12-10.26.20:359][  0]LogConfig: Setting CVar [[r.DOF.Gather.RingCount:4                 ; medium number of samples when gathering]]
[2019.05.12-10.26.20:359][  0]LogConfig: Setting CVar [[r.DOF.Scatter.ForegroundCompositing:1    ; additive foreground scattering]]
[2019.05.12-10.26.20:359][  0]LogConfig: Setting CVar [[r.DOF.Scatter.BackgroundCompositing:2    ; additive background scattering]]
[2019.05.12-10.26.20:359][  0]LogConfig: Setting CVar [[r.DOF.Scatter.EnableBokehSettings:1      ; bokeh simulation when scattering]]
[2019.05.12-10.26.20:359][  0]LogConfig: Setting CVar [[r.DOF.Scatter.MaxSpriteRatio:0.1         ; only a maximum of 10% of scattered bokeh]]
[2019.05.12-10.26.20:359][  0]LogConfig: Setting CVar [[r.DOF.Recombine.Quality:1                ; cheap slight out of focus]]
[2019.05.12-10.26.20:359][  0]LogConfig: Setting CVar [[r.DOF.Recombine.EnableBokehSettings:0    ; no bokeh simulation on slight out of focus]]
[2019.05.12-10.26.20:359][  0]LogConfig: Setting CVar [[r.DOF.TemporalAAQuality:1                ; more stable temporal accumulation]]
[2019.05.12-10.26.20:359][  0]LogConfig: Setting CVar [[r.DOF.Kernel.MaxForegroundRadius:0.025]]
[2019.05.12-10.26.20:359][  0]LogConfig: Setting CVar [[r.DOF.Kernel.MaxBackgroundRadius:0.025]]
[2019.05.12-10.26.20:359][  0]LogConfig: Applying CVar settings from Section [TextureQuality@3] File [E:/Dazle/Saved/Config/Windows/Scalability.ini]
[2019.05.12-10.26.20:359][  0]LogConfig: Setting CVar [[r.Streaming.MipBias:0]]
[2019.05.12-10.26.20:359][  0]LogConfig: Setting CVar [[r.Streaming.AmortizeCPUToGPUCopy:0]]
[2019.05.12-10.26.20:359][  0]LogConfig: Setting CVar [[r.Streaming.MaxNumTexturesToStreamPerFrame:0]]
[2019.05.12-10.26.20:359][  0]LogConfig: Setting CVar [[r.Streaming.Boost:1]]
[2019.05.12-10.26.20:359][  0]LogConfig: Setting CVar [[r.MaxAnisotropy:8]]
[2019.05.12-10.26.20:359][  0]LogConfig: Setting CVar [[r.Streaming.LimitPoolSizeToVRAM:0]]
[2019.05.12-10.26.20:359][  0]LogConfig: Setting CVar [[r.Streaming.PoolSize:1000]]
[2019.05.12-10.26.20:359][  0]LogConfig: Setting CVar [[r.Streaming.MaxEffectiveScreenSize:0]]
[2019.05.12-10.26.20:359][  0]LogConfig: Applying CVar settings from Section [EffectsQuality@3] File [E:/Dazle/Saved/Config/Windows/Scalability.ini]
[2019.05.12-10.26.20:359][  0]LogConfig: Setting CVar [[r.TranslucencyLightingVolumeDim:64]]
[2019.05.12-10.26.20:360][  0]LogConfig: Setting CVar [[r.RefractionQuality:2]]
[2019.05.12-10.26.20:360][  0]LogConfig: Setting CVar [[r.SSR.Quality:3]]
[2019.05.12-10.26.20:360][  0]LogConfig: Setting CVar [[r.SceneColorFormat:4]]
[2019.05.12-10.26.20:360][  0]LogConfig: Setting CVar [[r.DetailMode:2]]
[2019.05.12-10.26.20:360][  0]LogConfig: Setting CVar [[r.TranslucencyVolumeBlur:1]]
[2019.05.12-10.26.20:360][  0]LogConfig: Setting CVar [[r.MaterialQualityLevel:1 ; High quality]]
[2019.05.12-10.26.20:360][  0]LogConfig: Setting CVar [[r.SSS.Scale:1]]
[2019.05.12-10.26.20:360][  0]LogConfig: Setting CVar [[r.SSS.SampleSet:2]]
[2019.05.12-10.26.20:360][  0]LogConfig: Setting CVar [[r.SSS.Quality:1]]
[2019.05.12-10.26.20:360][  0]LogConfig: Setting CVar [[r.SSS.HalfRes:1]]
[2019.05.12-10.26.20:360][  0]LogConfig: Setting CVar [[r.EmitterSpawnRateScale:1.0]]
[2019.05.12-10.26.20:360][  0]LogConfig: Setting CVar [[r.ParticleLightQuality:2]]
[2019.05.12-10.26.20:360][  0]LogConfig: Applying CVar settings from Section [FoliageQuality@3] File [E:/Dazle/Saved/Config/Windows/Scalability.ini]
[2019.05.12-10.26.20:360][  0]LogConfig: Setting CVar [[foliage.DensityScale:1.0]]
[2019.05.12-10.26.20:360][  0]LogConfig: Setting CVar [[grass.DensityScale:1.0]]
[2019.05.12-10.26.20:360][  0]LogInit: Selected Device Profile: [Windows]
[2019.05.12-10.26.20:360][  0]LogInit: Applying CVar settings loaded from the selected device profile: [Windows]
[2019.05.12-10.26.20:368][  0]LogHAL: Display: Platform has ~ 16 GB [17089454080 / 17179869184 / 16], which maps to Larger [LargestMinGB=32, LargerMinGB=12, DefaultMinGB=8, SmallerMinGB=6, SmallestMinGB=0)
[2019.05.12-10.26.20:368][  0]LogConfig: Setting CVar [[r.Vulkan.UseRealUBs:1]]
[2019.05.12-10.26.20:368][  0]LogInit: Going up to parent DeviceProfile []
[2019.05.12-10.26.20:368][  0]LogConfig: Applying CVar settings from Section [ViewDistanceQuality@2] File [E:/Dazle/Saved/Config/Windows/Scalability.ini]
[2019.05.12-10.26.20:368][  0]LogConfig: Setting CVar [[r.SkeletalMeshLODBias:0]]
[2019.05.12-10.26.20:368][  0]LogConfig: Setting CVar [[r.ViewDistanceScale:0.8]]
[2019.05.12-10.26.20:368][  0]LogConfig: Applying CVar settings from Section [AntiAliasingQuality@2] File [E:/Dazle/Saved/Config/Windows/Scalability.ini]
[2019.05.12-10.26.20:368][  0]LogConfig: Setting CVar [[r.PostProcessAAQuality:3]]
[2019.05.12-10.26.20:368][  0]LogConfig: Applying CVar settings from Section [ShadowQuality@2] File [E:/Dazle/Saved/Config/Windows/Scalability.ini]
[2019.05.12-10.26.20:368][  0]LogConfig: Setting CVar [[r.LightFunctionQuality:1]]
[2019.05.12-10.26.20:368][  0]LogConfig: Setting CVar [[r.ShadowQuality:5]]
[2019.05.12-10.26.20:368][  0]LogConfig: Setting CVar [[r.Shadow.CSM.MaxCascades:4]]
[2019.05.12-10.26.20:368][  0]LogConfig: Setting CVar [[r.Shadow.MaxResolution:1024]]
[2019.05.12-10.26.20:368][  0]LogConfig: Setting CVar [[r.Shadow.MaxCSMResolution:2048]]
[2019.05.12-10.26.20:368][  0]LogConfig: Setting CVar [[r.Shadow.RadiusThreshold:0.04]]
[2019.05.12-10.26.20:368][  0]LogConfig: Setting CVar [[r.Shadow.DistanceScale:0.85]]
[2019.05.12-10.26.20:368][  0]LogConfig: Setting CVar [[r.Shadow.CSM.TransitionScale:0.8]]
[2019.05.12-10.26.20:368][  0]LogConfig: Setting CVar [[r.Shadow.PreShadowResolutionFactor:0.5]]
[2019.05.12-10.26.20:368][  0]LogConfig: Setting CVar [[r.DistanceFieldShadowing:1]]
[2019.05.12-10.26.20:368][  0]LogConfig: Setting CVar [[r.DistanceFieldAO:1]]
[2019.05.12-10.26.20:368][  0]LogConfig: Setting CVar [[r.AOQuality:1]]
[2019.05.12-10.26.20:368][  0]LogConfig: Setting CVar [[r.VolumetricFog:1]]
[2019.05.12-10.26.20:368][  0]LogConfig: Setting CVar [[r.VolumetricFog.GridPixelSize:16]]
[2019.05.12-10.26.20:368][  0]LogConfig: Setting CVar [[r.VolumetricFog.GridSizeZ:64]]
[2019.05.12-10.26.20:368][  0]LogConfig: Setting CVar [[r.VolumetricFog.HistoryMissSupersampleCount:4]]
[2019.05.12-10.26.20:368][  0]LogConfig: Setting CVar [[r.LightMaxDrawDistanceScale:1]]
[2019.05.12-10.26.20:368][  0]LogConfig: Setting CVar [[r.CapsuleShadows:1]]
[2019.05.12-10.26.20:368][  0]LogConfig: Applying CVar settings from Section [PostProcessQuality@2] File [E:/Dazle/Saved/Config/Windows/Scalability.ini]
[2019.05.12-10.26.20:368][  0]LogConfig: Setting CVar [[r.MotionBlurQuality:3]]
[2019.05.12-10.26.20:368][  0]LogConfig: Setting CVar [[r.AmbientOcclusionMipLevelFactor:0.6]]
[2019.05.12-10.26.20:368][  0]LogConfig: Setting CVar [[r.AmbientOcclusionMaxQuality:100]]
[2019.05.12-10.26.20:368][  0]LogConfig: Setting CVar [[r.AmbientOcclusionLevels:-1]]
[2019.05.12-10.26.20:368][  0]LogConfig: Setting CVar [[r.AmbientOcclusionRadiusScale:1.5]]
[2019.05.12-10.26.20:368][  0]LogConfig: Setting CVar [[r.DepthOfFieldQuality:2]]
[2019.05.12-10.26.20:368][  0]LogConfig: Setting CVar [[r.RenderTargetPoolMin:400]]
[2019.05.12-10.26.20:368][  0]LogConfig: Setting CVar [[r.LensFlareQuality:2]]
[2019.05.12-10.26.20:368][  0]LogConfig: Setting CVar [[r.SceneColorFringeQuality:1]]
[2019.05.12-10.26.20:368][  0]LogConfig: Setting CVar [[r.EyeAdaptationQuality:2]]
[2019.05.12-10.26.20:368][  0]LogConfig: Setting CVar [[r.BloomQuality:5]]
[2019.05.12-10.26.20:368][  0]LogConfig: Setting CVar [[r.FastBlurThreshold:3]]
[2019.05.12-10.26.20:368][  0]LogConfig: Setting CVar [[r.Upscale.Quality:2]]
[2019.05.12-10.26.20:368][  0]LogConfig: Setting CVar [[r.Tonemapper.GrainQuantization:1]]
[2019.05.12-10.26.20:368][  0]LogConfig: Setting CVar [[r.LightShaftQuality:1]]
[2019.05.12-10.26.20:368][  0]LogConfig: Setting CVar [[r.Filter.SizeScale:0.8]]
[2019.05.12-10.26.20:368][  0]LogConfig: Setting CVar [[r.Tonemapper.Quality:5]]
[2019.05.12-10.26.20:368][  0]LogConfig: Setting CVar [[r.DOF.Gather.AccumulatorQuality:0        ; lower gathering accumulator quality]]
[2019.05.12-10.26.20:368][  0]LogConfig: Setting CVar [[r.DOF.Gather.PostfilterMethod:2          ; Max3x3 postfilering method]]
[2019.05.12-10.26.20:368][  0]LogConfig: Setting CVar [[r.DOF.Gather.EnableBokehSettings:0       ; no bokeh simulation when gathering]]
[2019.05.12-10.26.20:368][  0]LogConfig: Setting CVar [[r.DOF.Gather.RingCount:4                 ; medium number of samples when gathering]]
[2019.05.12-10.26.20:368][  0]LogConfig: Setting CVar [[r.DOF.Scatter.ForegroundCompositing:1    ; additive foreground scattering]]
[2019.05.12-10.26.20:368][  0]LogConfig: Setting CVar [[r.DOF.Scatter.BackgroundCompositing:1    ; no background occlusion]]
[2019.05.12-10.26.20:368][  0]LogConfig: Setting CVar [[r.DOF.Scatter.EnableBokehSettings:0      ; no bokeh simulation when scattering]]
[2019.05.12-10.26.20:368][  0]LogConfig: Setting CVar [[r.DOF.Scatter.MaxSpriteRatio:0.04        ; only a maximum of 4% of scattered bokeh]]
[2019.05.12-10.26.20:368][  0]LogConfig: Setting CVar [[r.DOF.Recombine.Quality:0                ; no slight out of focus]]
[2019.05.12-10.26.20:368][  0]LogConfig: Setting CVar [[r.DOF.TemporalAAQuality:0                ; faster temporal accumulation]]
[2019.05.12-10.26.20:368][  0]LogConfig: Setting CVar [[r.DOF.Kernel.MaxForegroundRadius:0.012   ; required because of AccumulatorQuality=0]]
[2019.05.12-10.26.20:368][  0]LogConfig: Setting CVar [[r.DOF.Kernel.MaxBackgroundRadius:0.012   ; required because of AccumulatorQuality=0]]
[2019.05.12-10.26.20:368][  0]LogConfig: Applying CVar settings from Section [TextureQuality@2] File [E:/Dazle/Saved/Config/Windows/Scalability.ini]
[2019.05.12-10.26.20:368][  0]LogConfig: Setting CVar [[r.Streaming.MipBias:0]]
[2019.05.12-10.26.20:368][  0]LogConfig: Setting CVar [[r.Streaming.AmortizeCPUToGPUCopy:0]]
[2019.05.12-10.26.20:368][  0]LogConfig: Setting CVar [[r.Streaming.MaxNumTexturesToStreamPerFrame:0]]
[2019.05.12-10.26.20:368][  0]LogConfig: Setting CVar [[r.Streaming.Boost:1]]
[2019.05.12-10.26.20:368][  0]LogConfig: Setting CVar [[r.MaxAnisotropy:4]]
[2019.05.12-10.26.20:368][  0]LogConfig: Setting CVar [[r.Streaming.LimitPoolSizeToVRAM:1]]
[2019.05.12-10.26.20:368][  0]LogConfig: Setting CVar [[r.Streaming.PoolSize:800]]
[2019.05.12-10.26.20:368][  0]LogConfig: Setting CVar [[r.Streaming.MaxEffectiveScreenSize:0]]
[2019.05.12-10.26.20:368][  0]LogConfig: Applying CVar settings from Section [EffectsQuality@2] File [E:/Dazle/Saved/Config/Windows/Scalability.ini]
[2019.05.12-10.26.20:368][  0]LogConfig: Setting CVar [[r.TranslucencyLightingVolumeDim:48]]
[2019.05.12-10.26.20:368][  0]LogConfig: Setting CVar [[r.RefractionQuality:2]]
[2019.05.12-10.26.20:368][  0]LogConfig: Setting CVar [[r.SSR.Quality:2]]
[2019.05.12-10.26.20:368][  0]LogConfig: Setting CVar [[r.SceneColorFormat:3]]
[2019.05.12-10.26.20:368][  0]LogConfig: Setting CVar [[r.DetailMode:1]]
[2019.05.12-10.26.20:368][  0]LogConfig: Setting CVar [[r.TranslucencyVolumeBlur:1]]
[2019.05.12-10.26.20:368][  0]LogConfig: Setting CVar [[r.MaterialQualityLevel:1 ; High quality]]
[2019.05.12-10.26.20:368][  0]LogConfig: Setting CVar [[r.SSS.Scale:1]]
[2019.05.12-10.26.20:369][  0]LogConfig: Setting CVar [[r.SSS.SampleSet:1]]
[2019.05.12-10.26.20:369][  0]LogConfig: Setting CVar [[r.SSS.Quality:-1]]
[2019.05.12-10.26.20:369][  0]LogConfig: Setting CVar [[r.SSS.HalfRes:1]]
[2019.05.12-10.26.20:369][  0]LogConfig: Setting CVar [[r.EmitterSpawnRateScale:0.5]]
[2019.05.12-10.26.20:369][  0]LogConfig: Setting CVar [[r.ParticleLightQuality:1]]
[2019.05.12-10.26.20:369][  0]LogConfig: Applying CVar settings from Section [FoliageQuality@2] File [E:/Dazle/Saved/Config/Windows/Scalability.ini]
[2019.05.12-10.26.20:369][  0]LogConfig: Setting CVar [[foliage.DensityScale:0.8]]
[2019.05.12-10.26.20:369][  0]LogConfig: Setting CVar [[grass.DensityScale:0.8]]
[2019.05.12-10.26.20:369][  0]LogConfig: Applying CVar settings from Section [Startup] File [../../../Engine/Config/ConsoleVariables.ini]
[2019.05.12-10.26.20:369][  0]LogConfig: Setting CVar [[net.UseAdaptiveNetUpdateFrequency:0]]
[2019.05.12-10.26.20:369][  0]LogConfig: Applying CVar settings from Section [ConsoleVariables] File [E:/Dazle/Saved/Config/Windows/Engine.ini]
[2019.05.12-10.26.20:369][  0]LogInit: Computer: DESKTOP-UB0RAS0
[2019.05.12-10.26.20:369][  0]LogInit: User: ES
[2019.05.12-10.26.20:369][  0]LogInit: CPU Page size=4096, Cores=6
[2019.05.12-10.26.20:369][  0]LogInit: High frequency timer resolution =10.000000 MHz
[2019.05.12-10.26.20:369][  0]LogMemory: Memory total: Physical=15.9GB (16GB approx)
[2019.05.12-10.26.20:369][  0]LogMemory: Platform Memory Stats for Windows
[2019.05.12-10.26.20:369][  0]LogMemory: Process Physical Memory: 103.77 MB used, 103.77 MB peak
[2019.05.12-10.26.20:369][  0]LogMemory: Process Virtual Memory: 86.26 MB used, 86.26 MB peak
[2019.05.12-10.26.20:369][  0]LogMemory: Physical Memory: 7315.68 MB used,  8982.09 MB free, 16297.77 MB total
[2019.05.12-10.26.20:369][  0]LogMemory: Virtual Memory: 4662.39 MB used,  134213064.00 MB free, 134217728.00 MB total
[2019.05.12-10.26.20:389][  0]LogInit: Using OS detected language (ko-KR).
[2019.05.12-10.26.20:390][  0]LogInit: Using OS detected locale (ko-KR).
[2019.05.12-10.26.20:390][  0]LogTextLocalizationManager: No specific localization for 'ko-KR' exists, so the 'ko' localization will be used.
[2019.05.12-10.26.20:663][  0]LogStreaming: Display: Took  0.273s to InitEngineTextLocalization.
[2019.05.12-10.26.20:663][  0]LogInit: Setting process to per monitor DPI aware
[2019.05.12-10.26.20:708][  0]LogSlate: New Slate User Created.  User Index 0, Is Virtual User: 0
[2019.05.12-10.26.20:708][  0]LogSlate: Slate User Registered.  User Index 0, Is Virtual User: 0
[2019.05.12-10.26.20:932][  0]LogHMD: Failed to initialize OpenVR with code 126
[2019.05.12-10.26.20:932][  0]LogD3D11RHI: D3D11 adapters:
[2019.05.12-10.26.20:991][  0]LogD3D11RHI:    0. 'NVIDIA GeForce GTX 1070' (Feature Level 11_0)
[2019.05.12-10.26.20:991][  0]LogD3D11RHI:       8096/0/8148 MB DedicatedVideo/DedicatedSystem/SharedSystem, Outputs:2, VendorId:0x10de
[2019.05.12-10.26.20:993][  0]LogD3D11RHI:    1. 'Microsoft Basic Render Driver' (Feature Level 11_0)
[2019.05.12-10.26.20:993][  0]LogD3D11RHI:       0/0/8148 MB DedicatedVideo/DedicatedSystem/SharedSystem, Outputs:0, VendorId:0x1414
[2019.05.12-10.26.20:993][  0]LogD3D11RHI: Chosen D3D11 Adapter: 0
[2019.05.12-10.26.20:998][  0]LogD3D11RHI: Creating new Direct3DDevice
[2019.05.12-10.26.20:998][  0]LogD3D11RHI:     GPU DeviceId: 0x1b81 (for the marketing name, search the web for "GPU Device Id")
[2019.05.12-10.26.20:998][  0]LogWindows: EnumDisplayDevices:
[2019.05.12-10.26.20:998][  0]LogWindows:    0. 'NVIDIA GeForce GTX 1070' (P:1 D:1)
[2019.05.12-10.26.20:999][  0]LogWindows:    1. 'NVIDIA GeForce GTX 1070' (P:0 D:1)
[2019.05.12-10.26.21:000][  0]LogWindows:    2. 'NVIDIA GeForce GTX 1070' (P:0 D:0)
[2019.05.12-10.26.21:001][  0]LogWindows:    3. 'NVIDIA GeForce GTX 1070' (P:0 D:0)
[2019.05.12-10.26.21:002][  0]LogWindows: DebugString: FoundDriverCount:4 
[2019.05.12-10.26.21:002][  0]LogD3D11RHI:     Adapter Name: NVIDIA GeForce GTX 1070
[2019.05.12-10.26.21:002][  0]LogD3D11RHI:   Driver Version: 388.13 (internal:23.21.13.8813, unified:388.13)
[2019.05.12-10.26.21:002][  0]LogD3D11RHI:      Driver Date: 10-27-2017
[2019.05.12-10.26.21:002][  0]LogRHI: Texture pool is 5667 MB (70% of 8096 MB)
[2019.05.12-10.26.21:025][  0]LogD3D11RHI: Async texture creation enabled
[2019.05.12-10.26.21:085][  0]LogD3D11RHI: GPU Timing Frequency: 1000.000000 (Debug: 2 1)
[2019.05.12-10.26.21:516][  0]LogTemp: Display: Loaded TP AllDesktopTargetPlatform
[2019.05.12-10.26.21:526][  0]LogTemp: Display: Loaded TP MacClientTargetPlatform
[2019.05.12-10.26.21:536][  0]LogTemp: Display: Loaded TP MacNoEditorTargetPlatform
[2019.05.12-10.26.21:547][  0]LogTemp: Display: Loaded TP MacServerTargetPlatform
[2019.05.12-10.26.21:557][  0]LogTemp: Display: Loaded TP MacTargetPlatform
[2019.05.12-10.26.21:568][  0]LogTemp: Display: Loaded TP WindowsClientTargetPlatform
[2019.05.12-10.26.21:578][  0]LogTemp: Display: Loaded TP WindowsNoEditorTargetPlatform
[2019.05.12-10.26.21:589][  0]LogTemp: Display: Loaded TP WindowsServerTargetPlatform
[2019.05.12-10.26.21:594][  0]LogTemp: Display: Loaded TP WindowsTargetPlatform
[2019.05.12-10.26.21:649][  0]LogTemp: Display: Loaded TP AndroidTargetPlatform
[2019.05.12-10.26.21:649][  0]LogTemp: Display: Loaded TP AndroidTargetPlatform
[2019.05.12-10.26.21:649][  0]LogTemp: Display: Loaded TP AndroidTargetPlatform
[2019.05.12-10.26.21:649][  0]LogTemp: Display: Loaded TP AndroidTargetPlatform
[2019.05.12-10.26.21:649][  0]LogTemp: Display: Loaded TP AndroidTargetPlatform
[2019.05.12-10.26.21:649][  0]LogTemp: Display: Loaded TP AndroidTargetPlatform
[2019.05.12-10.26.21:649][  0]LogTemp: Display: Loaded TP AndroidTargetPlatform
[2019.05.12-10.26.21:650][  0]LogTemp: Display: Loaded TP AndroidTargetPlatform
[2019.05.12-10.26.21:650][  0]LogTemp: Display: Loaded TP AndroidTargetPlatform
[2019.05.12-10.26.21:650][  0]LogTemp: Display: Loaded TP AndroidTargetPlatform
[2019.05.12-10.26.21:650][  0]LogTemp: Display: Loaded TP AndroidTargetPlatform
[2019.05.12-10.26.21:650][  0]LogTemp: Display: Loaded TP AndroidTargetPlatform
[2019.05.12-10.26.21:650][  0]LogTemp: Display: Loaded TP AndroidTargetPlatform
[2019.05.12-10.26.21:650][  0]LogTemp: Display: Loaded TP AndroidTargetPlatform
[2019.05.12-10.26.21:650][  0]LogTemp: Display: Loaded TP AndroidTargetPlatform
[2019.05.12-10.26.21:650][  0]LogTemp: Display: Loaded TP AndroidTargetPlatform
[2019.05.12-10.26.21:650][  0]LogTemp: Display: Loaded TP AndroidTargetPlatform
[2019.05.12-10.26.21:650][  0]LogTemp: Display: Loaded TP AndroidTargetPlatform
[2019.05.12-10.26.21:651][  0]LogTemp: Display: Loaded TP HTML5TargetPlatform
[2019.05.12-10.26.21:705][  0]LogTemp: Display: Loaded TP IOSTargetPlatform
[2019.05.12-10.26.21:705][  0]LogTemp: Display: Loaded TP IOSTargetPlatform
[2019.05.12-10.26.21:722][  0]LogTemp: Display: Loaded TP TVOSTargetPlatform
[2019.05.12-10.26.21:722][  0]LogTemp: Display: Loaded TP TVOSTargetPlatform
[2019.05.12-10.26.21:731][  0]LogTemp: Display: Loaded TP LinuxClientTargetPlatform
[2019.05.12-10.26.21:741][  0]LogTemp: Display: Loaded TP LinuxNoEditorTargetPlatform
[2019.05.12-10.26.21:750][  0]LogTemp: Display: Loaded TP LinuxServerTargetPlatform
[2019.05.12-10.26.21:759][  0]LogTemp: Display: Loaded TP LinuxTargetPlatform
[2019.05.12-10.26.21:792][  0]LogTemp: Display: Loaded TP LuminTargetPlatform
[2019.05.12-10.26.21:792][  0]LogTemp: Display: Loaded TP LuminTargetPlatform
[2019.05.12-10.26.21:792][  0]LogTargetPlatformManager: Display: Building Assets For Windows
[2019.05.12-10.26.21:847][  0]LogShaderCompilers: Guid format shader working directory is 34 characters bigger than the processId version (E:/Dazle/Intermediate/Shaders/WorkingDirectory/16144/).
[2019.05.12-10.26.21:847][  0]LogShaderCompilers: Cleaned the shader compiler working directory 'C:/Users/ES/AppData/Local/Temp/UnrealShaderWorkingDir/084B2A0E46B977499F77D7BDD9FCCF4A/'.
[2019.05.12-10.26.21:849][  0]LogXGEController: Cleaning working directory: C:/Users/ES/AppData/Local/Temp/UnrealXGEWorkingDir/
[2019.05.12-10.26.21:849][  0]LogXGEController: Cannot use XGE Controller as Incredibuild is not installed on this machine.
[2019.05.12-10.26.21:849][  0]LogShaderCompilers: Cannot use XGE Shader Compiler as Incredibuild is not installed on this machine.
[2019.05.12-10.26.21:849][  0]LogShaderCompilers: Display: Using Local Shader Compiler.
[2019.05.12-10.26.22:252][  0]LogDerivedDataCache: Display: Max Cache Size: 512 MB
[2019.05.12-10.26.22:303][  0]LogDerivedDataCache: Loaded boot cache 0.05s 100MB C:/Users/ES/AppData/Local/UnrealEngine/4.21/DerivedDataCache/Boot.ddc.
[2019.05.12-10.26.22:303][  0]LogDerivedDataCache: Display: Loaded Boot cache: C:/Users/ES/AppData/Local/UnrealEngine/4.21/DerivedDataCache/Boot.ddc
[2019.05.12-10.26.22:303][  0]LogDerivedDataCache: FDerivedDataBackendGraph:  Pak pak cache file E:/Dazle/DerivedDataCache/DDC.ddp not found, will not use a pak cache.
[2019.05.12-10.26.22:303][  0]LogDerivedDataCache: Unable to find inner node Pak for hierarchical cache Hierarchy.
[2019.05.12-10.26.22:303][  0]LogDerivedDataCache: FDerivedDataBackendGraph:  CompressedPak pak cache file E:/Dazle/DerivedDataCache/Compressed.ddp not found, will not use a pak cache.
[2019.05.12-10.26.22:303][  0]LogDerivedDataCache: Unable to find inner node CompressedPak for hierarchical cache Hierarchy.
[2019.05.12-10.26.22:315][  0]LogDerivedDataCache: Display: Pak cache opened for reading ../../../Engine/DerivedDataCache/Compressed.ddp.
[2019.05.12-10.26.22:315][  0]LogDerivedDataCache: FDerivedDataBackendGraph:  EnterprisePak pak cache file ../../../Enterprise/DerivedDataCache/Compressed.ddp not found, will not use a pak cache.
[2019.05.12-10.26.22:315][  0]LogDerivedDataCache: Unable to find inner node EnterprisePak for hierarchical cache Hierarchy.
[2019.05.12-10.26.22:327][  0]LogDerivedDataCache: Using Local data cache path C:/Users/ES/AppData/Local/UnrealEngine/Common/DerivedDataCache: Writable
[2019.05.12-10.26.22:327][  0]LogDerivedDataCache: Shared data cache path not found in *engine.ini, will not use an Shared cache.
[2019.05.12-10.26.22:327][  0]LogDerivedDataCache: Unable to find inner node Shared for hierarchical cache Hierarchy.
[2019.05.12-10.26.22:344][  0]LogMaterial: Verifying Global Shaders for PCD3D_SM5
[2019.05.12-10.26.22:345][  0]LogSlate: Using FreeType 2.6.0
[2019.05.12-10.26.22:345][  0]LogSlate: SlateFontServices - WITH_FREETYPE: 1, WITH_HARFBUZZ: 1
[2019.05.12-10.26.22:418][  0]LogAssetRegistry: FAssetRegistry took 0.0305 seconds to start up
[2019.05.12-10.26.22:658][  0]LogInit: Selected Device Profile: [Windows]
[2019.05.12-10.26.22:720][  0]LogSimplygon: Simplygon DLL not present - disabling.
[2019.05.12-10.26.22:723][  0]LogMeshReduction: Using SimplygonSwarm for distributed automatic mesh merging
[2019.05.12-10.26.22:724][  0]LogMeshReduction: Using ProxyLODMeshReduction for automatic mesh merging
[2019.05.12-10.26.22:724][  0]LogMeshReduction: Using QuadricMeshReduction for automatic static mesh reduction
[2019.05.12-10.26.22:724][  0]LogMeshReduction: No automatic skeletal mesh reduction module available
[2019.05.12-10.26.22:794][  0]LogNetVersion: Dazle 1.0.0, NetCL: 4541578, EngineNetVer: 5, GameNetVer: 0 (Checksum: 4199681153)
[2019.05.12-10.26.23:167][  0]LogPackageLocalizationCache: Processed 11 localized package path(s) for 2 prioritized culture(s) in 0.063293 seconds
[2019.05.12-10.26.23:171][  0]LogUObjectArray: 39775 objects as part of root set at end of initial load.
[2019.05.12-10.26.23:171][  0]LogUObjectAllocator: 6914656 out of 0 bytes used by permanent object pool.
[2019.05.12-10.26.23:171][  0]LogUObjectArray: CloseDisregardForGC: 0/0 objects in disregard for GC pool
[2019.05.12-10.26.23:861][  0]LogTcpMessaging: Initializing TcpMessaging bridge
[2019.05.12-10.26.23:873][  0]LogUdpMessaging: Initializing bridge on interface 0.0.0.0:0 to multicast group 230.0.0.1:6666.
[2019.05.12-10.26.24:875][  0]ARLog: Warning: APlayerCharacter -1
[2019.05.12-10.26.25:376][  0]ARLog: Warning: Game Mode Create 
[2019.05.12-10.26.25:425][  0]SourceControl: 소스 컨트롤이 꺼졌습니다.
[2019.05.12-10.26.25:425][  0]SourceControl: 소스 컨트롤이 꺼졌습니다.
[2019.05.12-10.26.25:427][  0]SourceControl: 소스 컨트롤이 꺼졌습니다.
[2019.05.12-10.26.25:427][  0]SourceControl: 소스 컨트롤이 꺼졌습니다.
[2019.05.12-10.26.25:574][  0]LogAndroidPermission: UAndroidPermissionCallbackProxy::GetInstance
[2019.05.12-10.26.25:773][  0]LogOcInput: OculusInput pre-init called
[2019.05.12-10.26.25:893][  0]LogEngine: Initializing Engine...
[2019.05.12-10.26.25:913][  0]LogHMD: Failed to initialize OpenVR with code 126
[2019.05.12-10.26.25:914][  0]LogStats: UGameplayTagsManager::ConstructGameplayTagTree: ImportINI prefixes -  0.000 s
[2019.05.12-10.26.25:914][  0]LogStats: UGameplayTagsManager::ConstructGameplayTagTree: Construct from data asset -  0.000 s
[2019.05.12-10.26.25:914][  0]LogStats: UGameplayTagsManager::ConstructGameplayTagTree: ImportINI -  0.000 s
[2019.05.12-10.26.25:914][  0]LogStats: UGameplayTagsManager::ConstructGameplayTagTree: GameplayTagTreeChangedEvent.Broadcast -  0.000 s
[2019.05.12-10.26.26:088][  0]LogInit: Initializing FReadOnlyCVARCache
[2019.05.12-10.26.26:101][  0]LogAIModule: Creating AISystem for world Untitled
[2019.05.12-10.26.26:203][  0]LogInit: XAudio2 using 'T23C350(NVIDIA High Definition Audio)' : 2 channels at 48 kHz using 16 bits per sample (channel mask 0x3)
[2019.05.12-10.26.26:262][  0]LogInit: FAudioDevice initialized.
[2019.05.12-10.26.26:263][  0]LogNetVersion: Set ProjectVersion to 1.0.0.0. Version Checksum will be recalculated on next use.
[2019.05.12-10.26.26:341][  0]LogDerivedDataCache: Saved boot cache 0.08s 100MB C:/Users/ES/AppData/Local/UnrealEngine/4.21/DerivedDataCache/Boot.ddc.
[2019.05.12-10.26.26:351][  0]LogInit: Texture streaming: Enabled
[2019.05.12-10.26.26:372][  0]LogEngineSessionManager: EngineSessionManager initialized
[2019.05.12-10.26.26:384][  0]LogInit: Transaction tracking system initialized
[2019.05.12-10.26.26:412][  0]BlueprintLog: New page: 에디터 로드
[2019.05.12-10.26.26:497][  0]LocalizationService: 현지화 서비스가 비활성화되었습니다.
[2019.05.12-10.26.26:895][  0]LogCook: Display: Max memory allowance for cook 16384mb min free memory 0mb
[2019.05.12-10.26.26:895][  0]LogCook: Display: Mobile HDR setting 1
[2019.05.12-10.26.26:895][  0]LogGameplayTags: Display: UGameplayTagsManager::DoneAddingNativeTags. DelegateIsBound: 0
[2019.05.12-10.26.26:895][  0]LogStats: UGameplayTagsManager::ConstructGameplayTagTree: ImportINI prefixes -  0.000 s
[2019.05.12-10.26.26:895][  0]LogStats: UGameplayTagsManager::ConstructGameplayTagTree: Construct from data asset -  0.000 s
[2019.05.12-10.26.26:895][  0]LogStats: UGameplayTagsManager::ConstructGameplayTagTree: ImportINI -  0.000 s
[2019.05.12-10.26.26:895][  0]LogStats: UGameplayTagsManager::ConstructGameplayTagTree: GameplayTagTreeChangedEvent.Broadcast -  0.000 s
[2019.05.12-10.26.26:994][  0]LogFileCache: Scanning file cache for directory 'E:/Dazle/Content/' took 0.05s
[2019.05.12-10.26.26:994][  0]SourceControl: 소스 컨트롤이 꺼졌습니다.
[2019.05.12-10.26.26:994][  0]Cmd: MAP LOAD FILE="E:/Dazle/Content/Test1.umap" TEMPLATE=0 SHOWPROGRESS=1 FEATURELEVEL=3
[2019.05.12-10.26.26:995][  0]LightingResults: New page: 라이팅 빌드
[2019.05.12-10.26.26:997][  0]MapCheck: New page: 맵 체크
[2019.05.12-10.26.26:997][  0]LightingResults: New page: 라이팅 빌드
[2019.05.12-10.26.27:409][  0]ARLog: Warning: APlayerCharacter -1
[2019.05.12-10.26.27:816][  0]LogAIModule: Creating AISystem for world Test1
[2019.05.12-10.26.27:845][  0]LogMaterial: Warning: Material /Game/SoulCity/Environment/Materials/Building/M_Slums_Metalwork.M_Slums_Metalwork needed to have new flag set bUsedWithSkeletalMesh !
[2019.05.12-10.26.27:847][  0]LogMaterial: Display: Missing cached shader map for material M_Slums_Metalwork, compiling. 
[2019.05.12-10.26.27:907][  0]MapCheck: Warning: M_Slums_Metalwork /Game/SoulCity/Environment/Materials/Building/M_Slums_Metalwork.M_Slums_Metalwork 머티리얼이 bUsedWithSkeletalMesh 사용 플래그에 빠져있었습니다. 머티리얼 애셋이 재저장되지 않은 경우, 에디터 밖에서 실행시 제대로 렌더링되지 않을 수 있습니다. 픽스
[2019.05.12-10.26.27:910][  0]LogMaterial: Display: Missing cached shader map for material M_Slums_Metalwork, compiling. 
[2019.05.12-10.26.27:939][  0]LogShaderCompilers: Display: Shaders left to compile 69
[2019.05.12-10.26.27:939][  0]LogShaderCompilers: Display: Shaders left to compile 59
[2019.05.12-10.26.27:939][  0]LogShaderCompilers: Display: Shaders left to compile 49
[2019.05.12-10.26.27:939][  0]LogShaderCompilers: Display: Shaders left to compile 39
[2019.05.12-10.26.27:939][  0]LogShaderCompilers: Display: Shaders left to compile 29
[2019.05.12-10.26.27:939][  0]LogShaderCompilers: Display: Shaders left to compile 19
[2019.05.12-10.26.27:939][  0]LogShaderCompilers: Display: Shaders left to compile 9
[2019.05.12-10.26.27:939][  0]LogMaterial: Warning: Material /Game/SoulCity/Environment/Materials/Building/M_Signs.M_Signs needed to have new flag set bUsedWithSkeletalMesh !
[2019.05.12-10.26.27:941][  0]LogMaterial: Display: Missing cached shader map for material M_Signs, compiling. 
[2019.05.12-10.26.27:968][  0]MapCheck: Warning: M_Signs /Game/SoulCity/Environment/Materials/Building/M_Signs.M_Signs 머티리얼이 bUsedWithSkeletalMesh 사용 플래그에 빠져있었습니다. 머티리얼 애셋이 재저장되지 않은 경우, 에디터 밖에서 실행시 제대로 렌더링되지 않을 수 있습니다. 픽스
[2019.05.12-10.26.27:970][  0]LogMaterial: Display: Missing cached shader map for material M_Signs, compiling. 
[2019.05.12-10.26.28:014][  0]LogEditorServer: Finished looking for orphan Actors (0.000 secs)
[2019.05.12-10.26.28:038][  0]LogShaderCompilers: Display: Shaders left to compile 207
[2019.05.12-10.26.28:038][  0]LogShaderCompilers: Display: Shaders left to compile 197
[2019.05.12-10.26.28:040][  0]Cmd: MAP CHECKDEP NOCLEARLOG
[2019.05.12-10.26.28:040][  0]MapCheck: 맵 체크 완료: 오류 0 회, 경고 2 회, 소요 시간 0.068ms.
[2019.05.12-10.26.28:043][  0]LogFileHelpers: Loading map 'Test1' took 1.049
[2019.05.12-10.26.28:128][  0]LogSlate: Updating window title bar state: overlay mode, drag disabled, window buttons hidden, title bar hidden
[2019.05.12-10.26.28:134][  0]LogSlate: Updating window title bar state: overlay mode, drag disabled, window buttons hidden, title bar hidden
[2019.05.12-10.26.28:140][  0]LogSlate: Updating window title bar state: overlay mode, drag disabled, window buttons hidden, title bar hidden
[2019.05.12-10.26.28:146][  0]LogSlate: Updating window title bar state: overlay mode, drag disabled, window buttons hidden, title bar hidden
[2019.05.12-10.26.28:154][  0]LogCollectionManager: Loaded 0 collections in 0.003123 seconds
[2019.05.12-10.26.28:196][  0]LogFileCache: Scanning file cache for directory 'E:/Dazle/Saved/Collections/' took 0.01s
[2019.05.12-10.26.28:196][  0]LogFileCache: Scanning file cache for directory 'E:/Dazle/Content/Developers/ES/Collections/' took 0.01s
[2019.05.12-10.26.28:196][  0]LogFileCache: Scanning file cache for directory 'E:/Dazle/Content/Collections/' took 0.01s
[2019.05.12-10.26.28:196][  0]LogCollectionManager: Rebuilt the GUID cache for 0 collections in 0.000000 seconds
[2019.05.12-10.26.28:209][  0]LogContentBrowser: Native class hierarchy populated in 0.0132 seconds. Added 2687 classes and 622 folders.
[2019.05.12-10.26.28:219][  0]LogContentBrowser: Native class hierarchy updated for 'WidgetCarousel' in 0.0004 seconds. Added 0 classes and 0 folders.
[2019.05.12-10.26.28:220][  0]LogPakFile: Registered encryption key '00000000000000000000000000000000': 0 pak files mounted, 0 remain pending
[2019.05.12-10.26.28:221][  0]LogPakFile: Registered encryption key '00000000000000000000000000000000': 0 pak files mounted, 0 remain pending
[2019.05.12-10.26.28:222][  0]LogPakFile: Registered encryption key '00000000000000000000000000000000': 0 pak files mounted, 0 remain pending
[2019.05.12-10.26.28:222][  0]LogPakFile: Registered encryption key '00000000000000000000000000000000': 0 pak files mounted, 0 remain pending
[2019.05.12-10.26.28:223][  0]LogPakFile: Registered encryption key '00000000000000000000000000000000': 0 pak files mounted, 0 remain pending
[2019.05.12-10.26.28:224][  0]LogPakFile: Registered encryption key '00000000000000000000000000000000': 0 pak files mounted, 0 remain pending
[2019.05.12-10.26.28:224][  0]LogPakFile: Registered encryption key '00000000000000000000000000000000': 0 pak files mounted, 0 remain pending
[2019.05.12-10.26.28:225][  0]LogPakFile: Registered encryption key '00000000000000000000000000000000': 0 pak files mounted, 0 remain pending
[2019.05.12-10.26.28:225][  0]LogPakFile: Registered encryption key '00000000000000000000000000000000': 0 pak files mounted, 0 remain pending
[2019.05.12-10.26.28:226][  0]LogPakFile: Registered encryption key '00000000000000000000000000000000': 0 pak files mounted, 0 remain pending
[2019.05.12-10.26.28:227][  0]LogPakFile: Registered encryption key '00000000000000000000000000000000': 0 pak files mounted, 0 remain pending
[2019.05.12-10.26.28:227][  0]LogPakFile: Registered encryption key '00000000000000000000000000000000': 0 pak files mounted, 0 remain pending
[2019.05.12-10.26.28:228][  0]LogPakFile: Registered encryption key '00000000000000000000000000000000': 0 pak files mounted, 0 remain pending
[2019.05.12-10.26.28:228][  0]LogPakFile: Registered encryption key '00000000000000000000000000000000': 0 pak files mounted, 0 remain pending
[2019.05.12-10.26.28:229][  0]LogPakFile: Registered encryption key '00000000000000000000000000000000': 0 pak files mounted, 0 remain pending
[2019.05.12-10.26.28:229][  0]LogPakFile: Registered encryption key '00000000000000000000000000000000': 0 pak files mounted, 0 remain pending
[2019.05.12-10.26.28:230][  0]LogPakFile: Registered encryption key '00000000000000000000000000000000': 0 pak files mounted, 0 remain pending
[2019.05.12-10.26.28:231][  0]LogPakFile: Registered encryption key '00000000000000000000000000000000': 0 pak files mounted, 0 remain pending
[2019.05.12-10.26.28:231][  0]LogPakFile: Registered encryption key '00000000000000000000000000000000': 0 pak files mounted, 0 remain pending
[2019.05.12-10.26.28:232][  0]LogPakFile: Registered encryption key '00000000000000000000000000000000': 0 pak files mounted, 0 remain pending
[2019.05.12-10.26.28:232][  0]LogPakFile: Registered encryption key '00000000000000000000000000000000': 0 pak files mounted, 0 remain pending
[2019.05.12-10.26.28:233][  0]LogPakFile: Registered encryption key '00000000000000000000000000000000': 0 pak files mounted, 0 remain pending
[2019.05.12-10.26.28:233][  0]LogPakFile: Registered encryption key '00000000000000000000000000000000': 0 pak files mounted, 0 remain pending
[2019.05.12-10.26.28:234][  0]LogPakFile: Registered encryption key '00000000000000000000000000000000': 0 pak files mounted, 0 remain pending
[2019.05.12-10.26.28:234][  0]LogPakFile: Registered encryption key '00000000000000000000000000000000': 0 pak files mounted, 0 remain pending
[2019.05.12-10.26.28:235][  0]LogPakFile: Registered encryption key '00000000000000000000000000000000': 0 pak files mounted, 0 remain pending
[2019.05.12-10.26.28:273][  0]LogContentBrowser: Native class hierarchy updated for 'AddContentDialog' in 0.0005 seconds. Added 0 classes and 0 folders.
[2019.05.12-10.26.28:284][  0]LogContentBrowser: Native class hierarchy updated for 'SceneOutliner' in 0.0005 seconds. Added 1 classes and 2 folders.
[2019.05.12-10.26.28:452][  0]LogSlate: Took 0.000160 seconds to synchronously load lazily loaded font '../../../Engine/Content/Slate/Fonts/Roboto-Regular.ttf' (155K)
[2019.05.12-10.26.28:455][  0]LogSlate: Took 0.001937 seconds to synchronously load lazily loaded font '../../../Engine/Content/Editor/Slate/Fonts/NanumGothic.ttf' (4243K)
[2019.05.12-10.26.28:458][  0]LogSlate: Took 0.002233 seconds to synchronously load lazily loaded font '../../../Engine/Content/Editor/Slate/Fonts/NanumGothicBold.ttf' (4188K)
[2019.05.12-10.26.28:458][  0]LogSlate: Took 0.000202 seconds to synchronously load lazily loaded font '../../../Engine/Content/Slate/Fonts/Roboto-Bold.ttf' (160K)
[2019.05.12-10.26.28:463][  0]LogSlate: Took 0.000163 seconds to synchronously load lazily loaded font '../../../Engine/Content/Editor/Slate/Fonts/FontAwesome.ttf' (139K)
[2019.05.12-10.26.28:464][  0]LogSlate: Took 0.000131 seconds to synchronously load lazily loaded font '../../../Engine/Content/Slate/Fonts/DroidSansMono.ttf' (77K)
[2019.05.12-10.26.28:511][  0]LogSlate: Took 0.002069 seconds to synchronously load lazily loaded font '../../../Engine/Content/Editor/Slate/Fonts/NanumGothicExtraBold.ttf' (4074K)
[2019.05.12-10.26.28:634][  0]LogRenderer: Reallocating scene render targets to support 1196x576 Format 9 NumSamples 1 (Frame:1).
[2019.05.12-10.26.28:669][  0]LogSlate: Took 0.001954 seconds to synchronously load lazily loaded font '../../../Engine/Content/Slate/Fonts/../../Editor/Slate/Fonts/NanumGothic.ttf' (4243K)
[2019.05.12-10.26.28:773][  0]LogContentBrowser: Native class hierarchy updated for 'HierarchicalLODOutliner' in 0.0007 seconds. Added 0 classes and 0 folders.
[2019.05.12-10.26.28:773][  0]LogLoad: (Engine Initialization) Total time: 9.96 seconds
[2019.05.12-10.26.28:773][  0]LogLoad: (Engine Initialization) Total Blueprint compile time: 0.00 seconds
[2019.05.12-10.26.28:849][  0]LogContentStreaming: Texture pool size now 800 MB
[2019.05.12-10.26.29:128][  5]LogAssetRegistry: Asset discovery search completed in 6.7321 seconds
[2019.05.12-10.26.29:132][  5]LogCollectionManager: Rebuilt the object cache for 0 collections in 0.000001 seconds (found 0 objects)
[2019.05.12-10.26.29:133][  5]LogCollectionManager: Fixed up redirectors for 0 collections in 0.000362 seconds (updated 0 objects)
[2019.05.12-10.26.30:379][132]LogShaderCompilers: Display: Shaders left to compile 187
[2019.05.12-10.26.30:480][144]LogShaderCompilers: Display: Shaders left to compile 177
[2019.05.12-10.26.30:946][199]LogShaderCompilers: Display: Shaders left to compile 167
[2019.05.12-10.26.31:115][219]LogShaderCompilers: Display: Shaders left to compile 157
[2019.05.12-10.26.31:589][275]LogShaderCompilers: Display: Shaders left to compile 147
[2019.05.12-10.26.31:875][309]LogShaderCompilers: Display: Shaders left to compile 137
[2019.05.12-10.26.32:127][339]LogShaderCompilers: Display: Shaders left to compile 127
[2019.05.12-10.26.32:237][352]LogShaderCompilers: Display: Shaders left to compile 117
[2019.05.12-10.26.33:132][457]LogShaderCompilers: Display: Shaders left to compile 107
[2019.05.12-10.26.33:842][542]LogShaderCompilers: Display: Shaders left to compile 97
[2019.05.12-10.26.33:908][550]LogShaderCompilers: Display: Shaders left to compile 87
[2019.05.12-10.26.33:985][559]LogShaderCompilers: Display: Shaders left to compile 77
[2019.05.12-10.26.34:476][618]LogShaderCompilers: Display: Shaders left to compile 67
[2019.05.12-10.26.34:726][648]LogShaderCompilers: Display: Shaders left to compile 57
[2019.05.12-10.26.35:203][704]LogShaderCompilers: Display: Shaders left to compile 47
[2019.05.12-10.26.35:292][715]LogShaderCompilers: Display: Shaders left to compile 37
[2019.05.12-10.26.35:611][753]LogShaderCompilers: Display: Shaders left to compile 27
[2019.05.12-10.26.36:380][845]LogShaderCompilers: Display: Shaders left to compile 17
[2019.05.12-10.26.36:547][865]LogShaderCompilers: Display: Shaders left to compile 7
[2019.05.12-10.27.00:549][742]LogSlate: FSceneViewport::OnFocusLost() reason 0
[2019.05.12-10.27.00:573][742]LogSlate: Took 0.000124 seconds to synchronously load lazily loaded font '../../../Engine/Content/Slate/Fonts/Roboto-Light.ttf' (167K)
[2019.05.12-10.27.27:678][700]LogSlate: Took 0.000135 seconds to synchronously load lazily loaded font '../../../Engine/Content/Slate/Fonts/Roboto-Light.ttf' (167K)
[2019.05.12-10.27.27:770][700]LogContentBrowser: Verbose: The majority of assets in the view are of type: Skeleton
[2019.05.12-10.27.32:860][700]LogContentBrowser: Verbose: The majority of assets in the view are of type: Skeleton
[2019.05.12-10.27.42:809][700]LogSlate: Window '애니메이션 블루프린트 생성' being destroyed
[2019.05.12-10.27.51:435][719]LogAssetEditorManager: Opening Asset editor for AnimBlueprint /Game/minion/BluePrint/JombieBP.JombieBP
[2019.05.12-10.27.51:462][719]LogContentBrowser: Native class hierarchy updated for 'SkeletonEditor' in 0.0003 seconds. Added 1 classes and 2 folders.
[2019.05.12-10.27.51:679][719]LogActorComponent: RegisterComponentWithWorld: (/Engine/Transient.World_5:PersistentLevel.AnimationEditorPreviewActor_0.DebugSkelMeshComponent_0) Already registered. Aborting.
[2019.05.12-10.27.51:688][719]LogContentBrowser: Native class hierarchy updated for 'PinnedCommandList' in 0.0003 seconds. Added 1 classes and 0 folders.
[2019.05.12-10.27.52:130][719]LogContentBrowser: Native class hierarchy updated for 'BlueprintGraph' in 0.0005 seconds. Added 117 classes and 0 folders.
[2019.05.12-10.27.52:721][719]LogSkeletalMesh: USkeletalMeshComponent::InitArticulated : Bodies already created (/Engine/Transient.World_5:PersistentLevel.AnimationEditorPreviewActor_0.DebugSkelMeshComponent_0) - call TermArticulated first.
[2019.05.12-10.27.52:972][719]LogSlate: Took 0.004256 seconds to synchronously load lazily loaded font '../../../Engine/Content/Slate/Fonts/Roboto-BoldCondensed.ttf' (158K)
[2019.05.12-10.27.53:032][719]LogContentBrowser: Native class hierarchy updated for 'ClothingSystemEditorInterface' in 0.0003 seconds. Added 1 classes and 0 folders.
[2019.05.12-10.27.53:084][719]LogContentBrowser: Verbose: The majority of assets in the view are of type: AnimSequence
[2019.05.12-10.28.02:878][843]LogSlate: Took 0.002767 seconds to synchronously load lazily loaded font '../../../Engine/Content/Slate/Fonts/Roboto-Italic.ttf' (157K)
[2019.05.12-10.28.12:741][988]BlueprintLog: New page: JombieBP 컴파일
[2019.05.12-10.28.12:746][988]LogBlueprint: Warning: [Compiler JombieBP] New State Machine  입구 노드가 스테이트에 연결되지 않았습니다.
[2019.05.12-10.28.12:746][988]LogBlueprint: Warning: [Compiler JombieBP] New State Machine  에 입구 스테이트 연결이 없습니다.
[2019.05.12-10.28.12:926][988]LogBlueprint: Warning: [Compiler JombieBP] [0114.12] JombieBP 컴파일에 성공했습니다만, 경고가 2 회 있습니다. [소요시간 185 ms] (/Game/minion/BluePrint/JombieBP.JombieBP)
[2019.05.12-10.28.28:790][871]LogUnrealEdMisc: Warning: Heartbeat event firing too frequently (45.961 sec). This should never happen. Something is wrong with the timer delegate!
[2019.05.12-10.29.07:543][392]BlueprintLog: New page: JombieBP 컴파일
[2019.05.12-10.29.07:552][392]LogBlueprint: Warning: [Compiler JombieBP] Idle -> Death  will never be taken, please connect something to  Can Enter Transition
[2019.05.12-10.29.07:721][392]LogBlueprint: Warning: [Compiler JombieBP] [0168.91] JombieBP 컴파일에 성공했습니다만, 경고가 1 회 있습니다. [소요시간 177 ms] (/Game/minion/BluePrint/JombieBP.JombieBP)
[2019.05.12-10.29.09:846][623]BlueprintLog: New page: JombieBP 컴파일
[2019.05.12-10.29.09:852][623]LogBlueprint: Warning: [Compiler JombieBP] Idle -> Death  will never be taken, please connect something to  Can Enter Transition
[2019.05.12-10.29.10:017][623]LogBlueprint: Warning: [Compiler JombieBP] [0171.21] JombieBP 컴파일에 성공했습니다만, 경고가 1 회 있습니다. [소요시간 171 ms] (/Game/minion/BluePrint/JombieBP.JombieBP)
[2019.05.12-10.29.23:798][233]BlueprintLog: New page: JombieBP 컴파일
[2019.05.12-10.29.25:165][364]LogSlate: Window 'JombieBP*' being destroyed
[2019.05.12-10.30.06:807][470]LogLinker: Warning: '/Game/MansC/Game_Model_Body_Diffuse' 파일을 찾을 수 없습니다.
[2019.05.12-10.30.06:807][470]LogLinker: Warning: E:/Dazle/Content/Enemy/manne/manne_me.uasset 로드중 '/Game/MansC/Game_Model_Body_Diffuse' 애셋에 대한 파일을 찾을 수 없습니다.
[2019.05.12-10.30.06:808][470]LoadErrors: Error: /Game/Enemy/manne/manne_me : 애셋에 대한 파일을 찾을 수 없습니다. /Game/MansC/Game_Model_Body_Diffuse
[2019.05.12-10.30.06:808][470]LogLinker: Warning: '/Game/MansC/Game_Model_Top_Gloss' 파일을 찾을 수 없습니다.
[2019.05.12-10.30.06:808][470]LogLinker: Warning: E:/Dazle/Content/Enemy/manne/manne_me.uasset 로드중 '/Game/MansC/Game_Model_Top_Gloss' 애셋에 대한 파일을 찾을 수 없습니다.
[2019.05.12-10.30.06:808][470]LoadErrors: Error: /Game/Enemy/manne/manne_me : 애셋에 대한 파일을 찾을 수 없습니다. /Game/MansC/Game_Model_Top_Gloss
[2019.05.12-10.30.06:809][470]LogLinker: Warning: '/Game/MansC/Game_Model_Body_Diffuse' 파일을 찾을 수 없습니다.
[2019.05.12-10.30.06:809][470]LogLinker: Warning: E:/Dazle/Content/Enemy/manne/manne_me.uasset 로드중 '/Game/MansC/Game_Model_Body_Diffuse' 애셋에 대한 파일을 찾을 수 없습니다.
[2019.05.12-10.30.06:809][470]LogLinker: Warning: '/Game/MansC/Game_Model_Top_Gloss' 파일을 찾을 수 없습니다.
[2019.05.12-10.30.06:809][470]LogLinker: Warning: E:/Dazle/Content/Enemy/manne/manne_me.uasset 로드중 '/Game/MansC/Game_Model_Top_Gloss' 애셋에 대한 파일을 찾을 수 없습니다.
[2019.05.12-10.30.06:810][470]LogLinker: Warning: '/Game/MansC/Game_Model_Body_Diffuse' 파일을 찾을 수 없습니다.
[2019.05.12-10.30.06:810][470]LoadErrors: 로드에 실패했습니다. /Game/MansC/Game_Model_Body_Diffuse.Game_Model_Body_Diffuse 레퍼런싱한 것: MaterialExpressionTextureSample_0
[2019.05.12-10.30.06:811][470]LogLinker: Warning: NULL 로드중 '/Game/MansC/Game_Model_Body_Diffuse' 애셋에 대한 파일을 찾을 수 없습니다.
[2019.05.12-10.30.06:811][470]LogLinker: Warning: '/Game/MansC/Game_Model_Top_Gloss' 파일을 찾을 수 없습니다.
[2019.05.12-10.30.06:811][470]LoadErrors: 로드에 실패했습니다. /Game/MansC/Game_Model_Top_Gloss.Game_Model_Top_Gloss 레퍼런싱한 것: MaterialExpressionTextureSample_1
[2019.05.12-10.30.06:811][470]LogLinker: Warning: NULL 로드중 '/Game/MansC/Game_Model_Top_Gloss' 애셋에 대한 파일을 찾을 수 없습니다.
[2019.05.12-10.30.06:814][470]LogMaterial: Display: Missing cached shader map for material manne_me, compiling. 
[2019.05.12-10.30.06:815][470]LogMaterial: Warning: E:\Dazle\Content\Enemy\manne\manne_me.uasset: Failed to compile Material for platform PCD3D_SM5, Default Material will be used in game.
[2019.05.12-10.30.06:815][470]LogMaterial: 	(Node TextureSample) Texture Sample> Missing input texture
[2019.05.12-10.30.45:716][214]Candidate modules for hot reload:
[2019.05.12-10.30.45:716][214]  Dazle
[2019.05.12-10.30.45:716][214]Launching UnrealBuildTool... [C:/Program Files (x86)/Epic Games/UE_4.21/Engine/Binaries/DotNET/UnrealBuildTool.exe  -ModuleWithSuffix=Dazle,8777 Win64 Development -TargetType=Editor -Project="E:/Dazle/Dazle.uproject" -canskiplink "E:/Dazle/Dazle.uproject" ]
[2019.05.12-10.30.45:722][214]Warning: Starting HotReload took  0.0s.
[2019.05.12-10.31.05:798][619]CompilerResultsLog: New page: 컴파일 - 2019. 5. 13. 오전 4:31:05
[2019.05.12-10.31.05:800][619]CompilerResultsLog: Creating makefile for hot reloading DazleEditor (source directory changed)
[2019.05.12-10.31.05:801][619]CompilerResultsLog: Compiling game modules for hot reload
[2019.05.12-10.31.05:801][619]CompilerResultsLog: Using Visual Studio 2017 14.16.27023 toolchain (C:\Program Files (x86)\Microsoft Visual Studio\2017\Community\VC\Tools\MSVC\14.16.27023) and Windows 10.0.17763.0 SDK (C:\Program Files (x86)\Windows Kits\10).
[2019.05.12-10.31.05:801][619]CompilerResultsLog: Building 3 actions with 12 processes...
[2019.05.12-10.31.05:801][619]CompilerResultsLog:   [1/3] Module.Dazle.cpp
[2019.05.12-10.31.05:801][619]CompilerResultsLog:   E:\Dazle\Source\Dazle\PlayerCharacter.cpp(88): warning C4996: 'USceneComponent::AttachTo': This function is deprecated, please use AttachToComponent instead. Please update your code to the new API before upgrading to the next release, otherwise your project will no longer compile.
[2019.05.12-10.31.05:801][619]CompilerResultsLog:   C:\Program Files (x86)\Epic Games\UE_4.21\Engine\Source\Runtime\Engine\Classes\Components/SceneComponent.h(684): note: 'USceneComponent::AttachTo' ?????? ?????Ͻʽÿ?.
[2019.05.12-10.31.05:824][619]LogSlate: Took 0.021791 seconds to synchronously load lazily loaded font '../../../Engine/Content/Slate/Fonts/DroidSansFallback.ttf' (3848K)
[2019.05.12-10.31.05:853][619]LogSlate: Took 0.027613 seconds to synchronously load lazily loaded font '../../../Engine/Content/SlateDebug/Fonts/LastResort.ttf' (5269K)
[2019.05.12-10.31.05:853][619]CompilerResultsLog:   E:\Dazle\Source\Dazle\PlayerCharacter.cpp(95): warning C4996: 'USceneComponent::AttachTo': This function is deprecated, please use AttachToComponent instead. Please update your code to the new API before upgrading to the next release, otherwise your project will no longer compile.
[2019.05.12-10.31.05:853][619]CompilerResultsLog:   C:\Program Files (x86)\Epic Games\UE_4.21\Engine\Source\Runtime\Engine\Classes\Components/SceneComponent.h(684): note: 'USceneComponent::AttachTo' ?????? ?????Ͻʽÿ?.
[2019.05.12-10.31.05:854][619]CompilerResultsLog:   E:\Dazle\Source\Dazle\PlayerCharacter.cpp(100): warning C4996: 'USceneComponent::AttachTo': This function is deprecated, please use AttachToComponent instead. Please update your code to the new API before upgrading to the next release, otherwise your project will no longer compile.
[2019.05.12-10.31.05:854][619]CompilerResultsLog:   C:\Program Files (x86)\Epic Games\UE_4.21\Engine\Source\Runtime\Engine\Classes\Components/SceneComponent.h(684): note: 'USceneComponent::AttachTo' ?????? ?????Ͻʽÿ?.
[2019.05.12-10.31.05:854][619]CompilerResultsLog:   E:\Dazle\Source\Dazle\PlayerCharacter.cpp(107): warning C4996: 'USceneComponent::AttachTo': This function is deprecated, please use AttachToComponent instead. Please update your code to the new API before upgrading to the next release, otherwise your project will no longer compile.
[2019.05.12-10.31.05:855][619]CompilerResultsLog:   C:\Program Files (x86)\Epic Games\UE_4.21\Engine\Source\Runtime\Engine\Classes\Components/SceneComponent.h(684): note: 'USceneComponent::AttachTo' ?????? ?????Ͻʽÿ?.
[2019.05.12-10.31.05:855][619]CompilerResultsLog:   E:\Dazle\Source\Dazle\PlayerCharacter.cpp(113): warning C4996: 'USceneComponent::AttachTo': This function is deprecated, please use AttachToComponent instead. Please update your code to the new API before upgrading to the next release, otherwise your project will no longer compile.
[2019.05.12-10.31.05:855][619]CompilerResultsLog:   C:\Program Files (x86)\Epic Games\UE_4.21\Engine\Source\Runtime\Engine\Classes\Components/SceneComponent.h(684): note: 'USceneComponent::AttachTo' ?????? ?????Ͻʽÿ?.
[2019.05.12-10.31.05:855][619]CompilerResultsLog:   [2/3] UE4Editor-Dazle-8777.lib
[2019.05.12-10.31.05:855][619]CompilerResultsLog:      E:\Dazle\Intermediate\Build\Win64\UE4Editor\Development\Dazle\UE4Editor-Dazle-8777.lib ???̺귯?? ?? E:\Dazle\Intermediate\Build\Win64\UE4Editor\Development\Dazle\UE4Editor-Dazle-8777.exp ??ü?? ?????ϰ? ?ֽ??ϴ?.
[2019.05.12-10.31.05:878][619]CompilerResultsLog:   [3/3] UE4Editor-Dazle-8777.dll
[2019.05.12-10.31.05:878][619]CompilerResultsLog:      E:\Dazle\Intermediate\Build\Win64\UE4Editor\Development\Dazle\UE4Editor-Dazle-8777.suppressed.lib ???̺귯?? ?? E:\Dazle\Intermediate\Build\Win64\UE4Editor\Development\Dazle\UE4Editor-Dazle-8777.suppressed.exp ??ü?? ?????ϰ? ?ֽ??ϴ?.
[2019.05.12-10.31.05:878][619]CompilerResultsLog: Total build time: 19.73 seconds (Parallel executor: 15.04 seconds)
[2019.05.12-10.31.05:880][619]LogMainFrame: MainFrame: Module compiling took 20.168 seconds
[2019.05.12-10.31.05:988][619]LogHotReload: Re-instancing JombieCharacter after hot-reload.
[2019.05.12-10.31.06:145][619]ARLog: Warning: APlayerCharacter -1
[2019.05.12-10.31.06:148][619]ARLog: Warning: Game Mode Create 
[2019.05.12-10.31.06:149][619]LogContentBrowser: Native class hierarchy updated for 'Dazle' in 0.0003 seconds. Added 36 classes and 2 folders.
[2019.05.12-10.31.06:152][619]Display: HotReload successful (22 functions remapped  0 scriptstructs remapped)
[2019.05.12-10.31.06:526][619]LogContentBrowser: Native class hierarchy populated in 0.0065 seconds. Added 2689 classes and 626 folders.
[2019.05.12-10.31.06:531][619]Display: HotReload took 20.9s.
[2019.05.12-10.31.13:832][ 17]LogSlate: FSceneViewport::OnFocusLost() reason 0
[2019.05.12-10.31.15:190][172]ARLog: Warning: APlayerCharacter -1
[2019.05.12-10.31.15:191][172]ARLog: Warning: PostInitializeComponents -1
[2019.05.12-10.31.15:226][174]LogActor: Warning: Granade /Engine/Transient.World_17:PersistentLevel.Granade_0 has natively added scene component(s), but none of them were set as the actor's RootComponent - picking one arbitrarily
[2019.05.12-10.31.17:138][401]LogEditor: Attempting to add actor of class 'JombieCharacter' to level at 40.00,-1860.00,90.00
[2019.05.12-10.31.17:565][447]LogEditor: Attempting to add actor of class 'JombieCharacter' to level at 200.00,-1600.00,90.00
[2019.05.12-10.31.18:499][550]LogSlate: FSceneViewport::OnFocusLost() reason 0
[2019.05.12-10.31.18:632][566]LogTemp: Repeating last play command: 선택된 뷰포트
[2019.05.12-10.31.18:642][566]LogBlueprintUserMessages: Early PlayInEditor Detection: Level '/Game/Test1.Test1:PersistentLevel' has LevelScriptBlueprint '/Game/Test1.Test1:PersistentLevel.Test1' with GeneratedClass '/Game/Test1.Test1_C' with ClassGeneratedBy '/Game/Test1.Test1:PersistentLevel.Test1'
[2019.05.12-10.31.18:643][566]LogPlayLevel: PlayLevel: No blueprints needed recompiling
[2019.05.12-10.31.18:643][566]PIE: New page: PIE 세션: Test1 (2019. 5. 13. 오전 4:31:18)
[2019.05.12-10.31.18:655][566]LogPlayLevel: Creating play world package: /Game/UEDPIE_0_Test1
[2019.05.12-10.31.18:656][566]ARLog: Warning: APlayerCharacter -1
[2019.05.12-10.31.18:682][566]LogPlayLevel: PIE: StaticDuplicateObject took: (0.026949s)
[2019.05.12-10.31.18:683][566]LogAIModule: Creating AISystem for world Test1
[2019.05.12-10.31.18:683][566]LogPlayLevel: PIE: World Init took: (0.000533s)
[2019.05.12-10.31.18:683][566]LogPlayLevel: PIE: Created PIE world by copying editor world from /Game/Test1.Test1 to /Game/UEDPIE_0_Test1.Test1 (0.027926s)
[2019.05.12-10.31.18:833][566]LogInit: XAudio2 using 'T23C350(NVIDIA High Definition Audio)' : 2 channels at 48 kHz using 16 bits per sample (channel mask 0x3)
[2019.05.12-10.31.18:857][566]LogInit: FAudioDevice initialized.
[2019.05.12-10.31.18:897][566]LogLoad: Game class is 'TestGameMode'
[2019.05.12-10.31.18:897][566]ARLog: Warning: Game Mode Create 
[2019.05.12-10.31.18:901][566]LogWorld: Bringing World /Game/UEDPIE_0_Test1.Test1 up for play (max tick rate 0) at 2019.05.12-19.31.18
[2019.05.12-10.31.18:902][566]ARLog: Warning: PoDssess
[2019.05.12-10.31.18:902][566]ARLog: Warning: MNMN : MinionCharacter_1
[2019.05.12-10.31.18:902][566]ARLog: Warning: UseBlackboard
[2019.05.12-10.31.18:903][566]ARLog: Warning: PostInitializeComponents -1
[2019.05.12-10.31.18:903][566]ARLog: Warning: PoDssess
[2019.05.12-10.31.18:903][566]ARLog: Warning: CHCH : PlayerCharacter_1
[2019.05.12-10.31.18:903][566]ARLog: Warning: UseBlackboard
[2019.05.12-10.31.18:903][566]ARLog: Warning: PossessedBy -1
[2019.05.12-10.31.18:903][566]ARLog: Warning: PoDssess
[2019.05.12-10.31.18:904][566]ARLog: Warning: UseBlackboard
[2019.05.12-10.31.18:904][566]LogWorld: Bringing up level for play took: 0.005995
[2019.05.12-10.31.18:942][566]LogContentBrowser: Native class hierarchy updated for 'MovieSceneCapture' in 0.0003 seconds. Added 20 classes and 0 folders.
[2019.05.12-10.31.18:942][566]ARLog: Warning: APlayerCharacter -1
[2019.05.12-10.31.18:943][566]ARLog: Warning: PostInitializeComponents -1
[2019.05.12-10.31.18:943][566]ARLog: Warning: PoDssess
[2019.05.12-10.31.18:943][566]ARLog: Warning: CHCH : PlayerCharacter_0
[2019.05.12-10.31.18:943][566]ARLog: Warning: UseBlackboard
[2019.05.12-10.31.18:943][566]ARLog: Warning: PossessedBy -1
[2019.05.12-10.31.18:944][566]ARLog: Warning: UnPossess
[2019.05.12-10.31.18:944][566]ARLog: Warning: PossessedBy -1
[2019.05.12-10.31.18:945][566]ARLog: Warning: NativeConstruct
[2019.05.12-10.31.18:946][566]ARLog: Warning: Begin -1
[2019.05.12-10.31.18:946][566]ARLog: Warning: Begin -1
[2019.05.12-10.31.18:946][566]PIE: /Game/UEDPIE_0_Test1 에 대한 에디터에서 플레이 시작 시간: 0.895
[2019.05.12-10.31.18:946][566]LogBlueprintUserMessages: Late PlayInEditor Detection: Level '/Game/Test1.Test1:PersistentLevel' has LevelScriptBlueprint '/Game/Test1.Test1:PersistentLevel.Test1' with GeneratedClass '/Game/Test1.Test1_C' with ClassGeneratedBy '/Game/Test1.Test1:PersistentLevel.Test1'
[2019.05.12-10.31.19:623][632]ARLog: Warning: Minion : 1954.404419, fAtttt : 300.000000
[2019.05.12-10.31.19:623][632]ARLog: Warning: Minion : 1954.404419, fAtttt : 300.000000
[2019.05.12-10.31.19:731][645]ARLog: Warning: I dont Find you
[2019.05.12-10.31.20:830][777]ARLog: Warning: I dont Find you
[2019.05.12-10.31.21:164][817]ARLog: Warning: Minion : 1410.281128, fAtttt : 300.000000
[2019.05.12-10.31.21:164][817]ARLog: Warning: Minion : 1410.281128, fAtttt : 300.000000
[2019.05.12-10.31.21:180][819]ARLog: Warning: Minion : 1408.570557, fAtttt : 300.000000
[2019.05.12-10.31.21:180][819]ARLog: Warning: Minion : 1408.570557, fAtttt : 300.000000
[2019.05.12-10.31.21:197][821]ARLog: Warning: Minion : 1406.815552, fAtttt : 300.000000
[2019.05.12-10.31.21:197][821]ARLog: Warning: Minion : 1406.815552, fAtttt : 300.000000
[2019.05.12-10.31.21:213][823]ARLog: Warning: Minion : 1404.993652, fAtttt : 300.000000
[2019.05.12-10.31.21:213][823]ARLog: Warning: Minion : 1404.993652, fAtttt : 300.000000
[2019.05.12-10.31.21:230][825]ARLog: Warning: Minion : 1403.075684, fAtttt : 300.000000
[2019.05.12-10.31.21:230][825]ARLog: Warning: Minion : 1403.075684, fAtttt : 300.000000
[2019.05.12-10.31.21:247][827]ARLog: Warning: Minion : 1401.035645, fAtttt : 300.000000
[2019.05.12-10.31.21:247][827]ARLog: Warning: Minion : 1401.035645, fAtttt : 300.000000
[2019.05.12-10.31.21:264][829]ARLog: Warning: Minion : 1398.414185, fAtttt : 300.000000
[2019.05.12-10.31.21:264][829]ARLog: Warning: Minion : 1398.414185, fAtttt : 300.000000
[2019.05.12-10.31.21:280][831]ARLog: Warning: Minion : 1395.102417, fAtttt : 300.000000
[2019.05.12-10.31.21:280][831]ARLog: Warning: Minion : 1395.102417, fAtttt : 300.000000
[2019.05.12-10.31.21:298][833]ARLog: Warning: Minion : 1390.751831, fAtttt : 300.000000
[2019.05.12-10.31.21:298][833]ARLog: Warning: Minion : 1390.751831, fAtttt : 300.000000
[2019.05.12-10.31.21:314][835]ARLog: Warning: Minion : 1384.839355, fAtttt : 300.000000
[2019.05.12-10.31.21:314][835]ARLog: Warning: Minion : 1384.839355, fAtttt : 300.000000
[2019.05.12-10.31.21:331][837]ARLog: Warning: Minion : 1376.168579, fAtttt : 300.000000
[2019.05.12-10.31.21:331][837]ARLog: Warning: Minion : 1376.168579, fAtttt : 300.000000
[2019.05.12-10.31.21:347][839]ARLog: Warning: Minion : 1368.120972, fAtttt : 300.000000
[2019.05.12-10.31.21:347][839]ARLog: Warning: Minion : 1368.120972, fAtttt : 300.000000
[2019.05.12-10.31.21:364][841]ARLog: Warning: Minion : 1365.217896, fAtttt : 300.000000
[2019.05.12-10.31.21:364][841]ARLog: Warning: Minion : 1365.217896, fAtttt : 300.000000
[2019.05.12-10.31.21:381][843]ARLog: Warning: Minion : 1362.230103, fAtttt : 300.000000
[2019.05.12-10.31.21:381][843]ARLog: Warning: Minion : 1362.230103, fAtttt : 300.000000
[2019.05.12-10.31.21:397][845]ARLog: Warning: Minion : 1359.157959, fAtttt : 300.000000
[2019.05.12-10.31.21:397][845]ARLog: Warning: Minion : 1359.157959, fAtttt : 300.000000
[2019.05.12-10.31.21:414][847]ARLog: Warning: Minion : 1356.002319, fAtttt : 300.000000
[2019.05.12-10.31.21:414][847]ARLog: Warning: Minion : 1356.002319, fAtttt : 300.000000
[2019.05.12-10.31.21:430][849]ARLog: Warning: Minion : 1352.763672, fAtttt : 300.000000
[2019.05.12-10.31.21:431][849]ARLog: Warning: Minion : 1352.763672, fAtttt : 300.000000
[2019.05.12-10.31.21:447][851]ARLog: Warning: Minion : 1349.443237, fAtttt : 300.000000
[2019.05.12-10.31.21:447][851]ARLog: Warning: Minion : 1349.443237, fAtttt : 300.000000
[2019.05.12-10.31.21:464][853]ARLog: Warning: Minion : 1346.042236, fAtttt : 300.000000
[2019.05.12-10.31.21:464][853]ARLog: Warning: Minion : 1346.042236, fAtttt : 300.000000
[2019.05.12-10.31.21:481][855]ARLog: Warning: Minion : 1342.561768, fAtttt : 300.000000
[2019.05.12-10.31.21:481][855]ARLog: Warning: Minion : 1342.561768, fAtttt : 300.000000
[2019.05.12-10.31.21:497][857]ARLog: Warning: Minion : 1339.003784, fAtttt : 300.000000
[2019.05.12-10.31.21:498][857]ARLog: Warning: Minion : 1339.003784, fAtttt : 300.000000
[2019.05.12-10.31.21:514][859]ARLog: Warning: Minion : 1335.369507, fAtttt : 300.000000
[2019.05.12-10.31.21:514][859]ARLog: Warning: Minion : 1335.369507, fAtttt : 300.000000
[2019.05.12-10.31.21:531][861]ARLog: Warning: Minion : 1331.661133, fAtttt : 300.000000
[2019.05.12-10.31.21:531][861]ARLog: Warning: Minion : 1331.661133, fAtttt : 300.000000
[2019.05.12-10.31.21:547][863]ARLog: Warning: Minion : 1327.880493, fAtttt : 300.000000
[2019.05.12-10.31.21:547][863]ARLog: Warning: Minion : 1327.880493, fAtttt : 300.000000
[2019.05.12-10.31.21:563][865]ARLog: Warning: Minion : 1324.030029, fAtttt : 300.000000
[2019.05.12-10.31.21:563][865]ARLog: Warning: Minion : 1324.030029, fAtttt : 300.000000
[2019.05.12-10.31.21:580][867]ARLog: Warning: Minion : 1320.112061, fAtttt : 300.000000
[2019.05.12-10.31.21:580][867]ARLog: Warning: Minion : 1320.112061, fAtttt : 300.000000
[2019.05.12-10.31.21:597][869]ARLog: Warning: Minion : 1316.129395, fAtttt : 300.000000
[2019.05.12-10.31.21:598][869]ARLog: Warning: Minion : 1316.129395, fAtttt : 300.000000
[2019.05.12-10.31.21:613][871]ARLog: Warning: Minion : 1312.084717, fAtttt : 300.000000
[2019.05.12-10.31.21:613][871]ARLog: Warning: Minion : 1312.084717, fAtttt : 300.000000
[2019.05.12-10.31.21:630][873]ARLog: Warning: Minion : 1307.980957, fAtttt : 300.000000
[2019.05.12-10.31.21:630][873]ARLog: Warning: Minion : 1307.980957, fAtttt : 300.000000
[2019.05.12-10.31.21:647][875]ARLog: Warning: Minion : 1303.821533, fAtttt : 300.000000
[2019.05.12-10.31.21:647][875]ARLog: Warning: Minion : 1303.821533, fAtttt : 300.000000
[2019.05.12-10.31.21:664][877]ARLog: Warning: Minion : 1299.609863, fAtttt : 300.000000
[2019.05.12-10.31.21:664][877]ARLog: Warning: Minion : 1299.609863, fAtttt : 300.000000
[2019.05.12-10.31.21:680][879]ARLog: Warning: Minion : 1295.349487, fAtttt : 300.000000
[2019.05.12-10.31.21:680][879]ARLog: Warning: Minion : 1295.349487, fAtttt : 300.000000
[2019.05.12-10.31.21:697][881]ARLog: Warning: Minion : 1291.043945, fAtttt : 300.000000
[2019.05.12-10.31.21:697][881]ARLog: Warning: Minion : 1291.043945, fAtttt : 300.000000
[2019.05.12-10.31.21:714][883]ARLog: Warning: Minion : 1286.697632, fAtttt : 300.000000
[2019.05.12-10.31.21:714][883]ARLog: Warning: Minion : 1286.697632, fAtttt : 300.000000
[2019.05.12-10.31.21:730][885]ARLog: Warning: Minion : 1282.313965, fAtttt : 300.000000
[2019.05.12-10.31.21:731][885]ARLog: Warning: Minion : 1282.313965, fAtttt : 300.000000
[2019.05.12-10.31.21:747][887]ARLog: Warning: Minion : 1277.897827, fAtttt : 300.000000
[2019.05.12-10.31.21:747][887]ARLog: Warning: Minion : 1277.897827, fAtttt : 300.000000
[2019.05.12-10.31.21:764][889]ARLog: Warning: Minion : 1273.453491, fAtttt : 300.000000
[2019.05.12-10.31.21:764][889]ARLog: Warning: Minion : 1273.453491, fAtttt : 300.000000
[2019.05.12-10.31.21:781][891]ARLog: Warning: Minion : 1268.985962, fAtttt : 300.000000
[2019.05.12-10.31.21:781][891]ARLog: Warning: Minion : 1268.985962, fAtttt : 300.000000
[2019.05.12-10.31.21:797][893]ARLog: Warning: Minion : 1264.499756, fAtttt : 300.000000
[2019.05.12-10.31.21:797][893]ARLog: Warning: Minion : 1264.499756, fAtttt : 300.000000
[2019.05.12-10.31.21:813][895]ARLog: Warning: Minion : 1260.000244, fAtttt : 300.000000
[2019.05.12-10.31.21:813][895]ARLog: Warning: Minion : 1260.000244, fAtttt : 300.000000
[2019.05.12-10.31.21:830][897]ARLog: Warning: Minion : 1255.492920, fAtttt : 300.000000
[2019.05.12-10.31.21:830][897]ARLog: Warning: Minion : 1255.492920, fAtttt : 300.000000
[2019.05.12-10.31.21:838][898]ARLog: Warning: I dont Find you
[2019.05.12-10.31.21:847][899]ARLog: Warning: Minion : 1250.983276, fAtttt : 300.000000
[2019.05.12-10.31.21:847][899]ARLog: Warning: Minion : 1250.983276, fAtttt : 300.000000
[2019.05.12-10.31.21:863][901]ARLog: Warning: Minion : 1246.477051, fAtttt : 300.000000
[2019.05.12-10.31.21:864][901]ARLog: Warning: Minion : 1246.477051, fAtttt : 300.000000
[2019.05.12-10.31.21:880][903]ARLog: Warning: Minion : 1241.980225, fAtttt : 300.000000
[2019.05.12-10.31.21:880][903]ARLog: Warning: Minion : 1241.980225, fAtttt : 300.000000
[2019.05.12-10.31.21:897][905]ARLog: Warning: Minion : 1237.498901, fAtttt : 300.000000
[2019.05.12-10.31.21:897][905]ARLog: Warning: Minion : 1237.498901, fAtttt : 300.000000
[2019.05.12-10.31.21:914][907]ARLog: Warning: Minion : 1233.040039, fAtttt : 300.000000
[2019.05.12-10.31.21:914][907]ARLog: Warning: Minion : 1233.040039, fAtttt : 300.000000
[2019.05.12-10.31.21:930][909]ARLog: Warning: Minion : 1228.609985, fAtttt : 300.000000
[2019.05.12-10.31.21:930][909]ARLog: Warning: Minion : 1228.609985, fAtttt : 300.000000
[2019.05.12-10.31.21:947][911]ARLog: Warning: Minion : 1224.215942, fAtttt : 300.000000
[2019.05.12-10.31.21:947][911]ARLog: Warning: Minion : 1224.215942, fAtttt : 300.000000
[2019.05.12-10.31.21:964][913]ARLog: Warning: Minion : 1219.865234, fAtttt : 300.000000
[2019.05.12-10.31.21:964][913]ARLog: Warning: Minion : 1219.865234, fAtttt : 300.000000
[2019.05.12-10.31.21:981][915]ARLog: Warning: Minion : 1215.565552, fAtttt : 300.000000
[2019.05.12-10.31.21:981][915]ARLog: Warning: Minion : 1215.565552, fAtttt : 300.000000
[2019.05.12-10.31.21:997][917]ARLog: Warning: Minion : 1211.323486, fAtttt : 300.000000
[2019.05.12-10.31.21:997][917]ARLog: Warning: Minion : 1211.323486, fAtttt : 300.000000
[2019.05.12-10.31.22:014][919]ARLog: Warning: Minion : 1207.139648, fAtttt : 300.000000
[2019.05.12-10.31.22:014][919]ARLog: Warning: Minion : 1207.139648, fAtttt : 300.000000
[2019.05.12-10.31.22:031][921]ARLog: Warning: Minion : 1203.020264, fAtttt : 300.000000
[2019.05.12-10.31.22:031][921]ARLog: Warning: Minion : 1203.020264, fAtttt : 300.000000
[2019.05.12-10.31.22:048][923]ARLog: Warning: Minion : 1198.973145, fAtttt : 300.000000
[2019.05.12-10.31.22:048][923]ARLog: Warning: Minion : 1198.973145, fAtttt : 300.000000
[2019.05.12-10.31.22:065][925]ARLog: Warning: Minion : 1195.006104, fAtttt : 300.000000
[2019.05.12-10.31.22:065][925]ARLog: Warning: Minion : 1195.006104, fAtttt : 300.000000
[2019.05.12-10.31.22:081][927]ARLog: Warning: Minion : 1191.127686, fAtttt : 300.000000
[2019.05.12-10.31.22:081][927]ARLog: Warning: Minion : 1191.127686, fAtttt : 300.000000
[2019.05.12-10.31.22:097][929]ARLog: Warning: Minion : 1187.345947, fAtttt : 300.000000
[2019.05.12-10.31.22:097][929]ARLog: Warning: Minion : 1187.345947, fAtttt : 300.000000
[2019.05.12-10.31.22:114][931]ARLog: Warning: Minion : 1183.669922, fAtttt : 300.000000
[2019.05.12-10.31.22:114][931]ARLog: Warning: Minion : 1183.669922, fAtttt : 300.000000
[2019.05.12-10.31.22:130][933]ARLog: Warning: Minion : 1180.108521, fAtttt : 300.000000
[2019.05.12-10.31.22:130][933]ARLog: Warning: Minion : 1180.108521, fAtttt : 300.000000
[2019.05.12-10.31.22:147][935]ARLog: Warning: Minion : 1176.671143, fAtttt : 300.000000
[2019.05.12-10.31.22:147][935]ARLog: Warning: Minion : 1176.671143, fAtttt : 300.000000
[2019.05.12-10.31.22:164][937]ARLog: Warning: Minion : 1173.367676, fAtttt : 300.000000
[2019.05.12-10.31.22:164][937]ARLog: Warning: Minion : 1173.367676, fAtttt : 300.000000
[2019.05.12-10.31.22:180][939]ARLog: Warning: Minion : 1170.208130, fAtttt : 300.000000
[2019.05.12-10.31.22:180][939]ARLog: Warning: Minion : 1170.208130, fAtttt : 300.000000
[2019.05.12-10.31.22:196][941]ARLog: Warning: Minion : 1167.202515, fAtttt : 300.000000
[2019.05.12-10.31.22:197][941]ARLog: Warning: Minion : 1167.202515, fAtttt : 300.000000
[2019.05.12-10.31.22:213][943]ARLog: Warning: Minion : 1164.361572, fAtttt : 300.000000
[2019.05.12-10.31.22:213][943]ARLog: Warning: Minion : 1164.361572, fAtttt : 300.000000
[2019.05.12-10.31.22:230][945]ARLog: Warning: Minion : 1161.695801, fAtttt : 300.000000
[2019.05.12-10.31.22:230][945]ARLog: Warning: Minion : 1161.695801, fAtttt : 300.000000
[2019.05.12-10.31.22:247][947]ARLog: Warning: Minion : 1159.216187, fAtttt : 300.000000
[2019.05.12-10.31.22:247][947]ARLog: Warning: Minion : 1159.216187, fAtttt : 300.000000
[2019.05.12-10.31.22:263][949]ARLog: Warning: Minion : 1156.934326, fAtttt : 300.000000
[2019.05.12-10.31.22:263][949]ARLog: Warning: Minion : 1156.934326, fAtttt : 300.000000
[2019.05.12-10.31.22:280][951]ARLog: Warning: Minion : 1154.863159, fAtttt : 300.000000
[2019.05.12-10.31.22:280][951]ARLog: Warning: Minion : 1154.863159, fAtttt : 300.000000
[2019.05.12-10.31.22:297][953]ARLog: Warning: Minion : 1153.027710, fAtttt : 300.000000
[2019.05.12-10.31.22:297][953]ARLog: Warning: Minion : 1153.027710, fAtttt : 300.000000
[2019.05.12-10.31.22:313][955]ARLog: Warning: Minion : 1151.442139, fAtttt : 300.000000
[2019.05.12-10.31.22:314][955]ARLog: Warning: Minion : 1151.442139, fAtttt : 300.000000
[2019.05.12-10.31.22:330][957]ARLog: Warning: Minion : 1150.118530, fAtttt : 300.000000
[2019.05.12-10.31.22:330][957]ARLog: Warning: Minion : 1150.118530, fAtttt : 300.000000
[2019.05.12-10.31.22:347][959]ARLog: Warning: Minion : 1149.069214, fAtttt : 300.000000
[2019.05.12-10.31.22:347][959]ARLog: Warning: Minion : 1149.069214, fAtttt : 300.000000
[2019.05.12-10.31.22:364][961]ARLog: Warning: Minion : 1148.306396, fAtttt : 300.000000
[2019.05.12-10.31.22:364][961]ARLog: Warning: Minion : 1148.306396, fAtttt : 300.000000
[2019.05.12-10.31.22:380][963]ARLog: Warning: Minion : 1147.842407, fAtttt : 300.000000
[2019.05.12-10.31.22:381][963]ARLog: Warning: Minion : 1147.842407, fAtttt : 300.000000
[2019.05.12-10.31.22:397][965]ARLog: Warning: Minion : 1147.689453, fAtttt : 300.000000
[2019.05.12-10.31.22:397][965]ARLog: Warning: Minion : 1147.689453, fAtttt : 300.000000
[2019.05.12-10.31.22:414][967]ARLog: Warning: Minion : 1147.859741, fAtttt : 300.000000
[2019.05.12-10.31.22:414][967]ARLog: Warning: Minion : 1147.859741, fAtttt : 300.000000
[2019.05.12-10.31.22:430][969]ARLog: Warning: Minion : 1148.365723, fAtttt : 300.000000
[2019.05.12-10.31.22:431][969]ARLog: Warning: Minion : 1148.365723, fAtttt : 300.000000
[2019.05.12-10.31.22:447][971]ARLog: Warning: Minion : 1149.219116, fAtttt : 300.000000
[2019.05.12-10.31.22:447][971]ARLog: Warning: Minion : 1149.219116, fAtttt : 300.000000
[2019.05.12-10.31.22:464][973]ARLog: Warning: Minion : 1150.431763, fAtttt : 300.000000
[2019.05.12-10.31.22:464][973]ARLog: Warning: Minion : 1150.431763, fAtttt : 300.000000
[2019.05.12-10.31.22:480][975]ARLog: Warning: Minion : 1152.015625, fAtttt : 300.000000
[2019.05.12-10.31.22:481][975]ARLog: Warning: Minion : 1152.015625, fAtttt : 300.000000
[2019.05.12-10.31.22:497][977]ARLog: Warning: Minion : 1153.982056, fAtttt : 300.000000
[2019.05.12-10.31.22:498][977]ARLog: Warning: Minion : 1153.982056, fAtttt : 300.000000
[2019.05.12-10.31.22:514][979]ARLog: Warning: Minion : 1156.342163, fAtttt : 300.000000
[2019.05.12-10.31.22:514][979]ARLog: Warning: Minion : 1156.342163, fAtttt : 300.000000
[2019.05.12-10.31.22:531][981]ARLog: Warning: Minion : 1159.107056, fAtttt : 300.000000
[2019.05.12-10.31.22:531][981]ARLog: Warning: Minion : 1159.107056, fAtttt : 300.000000
[2019.05.12-10.31.22:547][983]ARLog: Warning: Minion : 1162.287231, fAtttt : 300.000000
[2019.05.12-10.31.22:548][983]ARLog: Warning: Minion : 1162.287231, fAtttt : 300.000000
[2019.05.12-10.31.22:563][985]ARLog: Warning: Minion : 1165.893066, fAtttt : 300.000000
[2019.05.12-10.31.22:564][985]ARLog: Warning: Minion : 1165.893066, fAtttt : 300.000000
[2019.05.12-10.31.22:580][987]ARLog: Warning: Minion : 1169.934326, fAtttt : 300.000000
[2019.05.12-10.31.22:580][987]ARLog: Warning: Minion : 1169.934326, fAtttt : 300.000000
[2019.05.12-10.31.22:597][989]ARLog: Warning: Minion : 1174.420288, fAtttt : 300.000000
[2019.05.12-10.31.22:597][989]ARLog: Warning: Minion : 1174.420288, fAtttt : 300.000000
[2019.05.12-10.31.22:613][991]ARLog: Warning: Minion : 1179.360107, fAtttt : 300.000000
[2019.05.12-10.31.22:614][991]ARLog: Warning: Minion : 1179.360107, fAtttt : 300.000000
[2019.05.12-10.31.22:630][993]ARLog: Warning: Minion : 1184.762207, fAtttt : 300.000000
[2019.05.12-10.31.22:630][993]ARLog: Warning: Minion : 1184.762207, fAtttt : 300.000000
[2019.05.12-10.31.22:647][995]ARLog: Warning: Minion : 1190.634399, fAtttt : 300.000000
[2019.05.12-10.31.22:647][995]ARLog: Warning: Minion : 1190.634399, fAtttt : 300.000000
[2019.05.12-10.31.22:664][997]ARLog: Warning: Minion : 1196.984619, fAtttt : 300.000000
[2019.05.12-10.31.22:664][997]ARLog: Warning: Minion : 1196.984619, fAtttt : 300.000000
[2019.05.12-10.31.22:680][999]ARLog: Warning: Minion : 1203.819214, fAtttt : 300.000000
[2019.05.12-10.31.22:680][999]ARLog: Warning: Minion : 1203.819214, fAtttt : 300.000000
[2019.05.12-10.31.22:697][  1]ARLog: Warning: Minion : 1211.145142, fAtttt : 300.000000
[2019.05.12-10.31.22:697][  1]ARLog: Warning: Minion : 1211.145142, fAtttt : 300.000000
[2019.05.12-10.31.22:714][  3]ARLog: Warning: Minion : 1218.967896, fAtttt : 300.000000
[2019.05.12-10.31.22:714][  3]ARLog: Warning: Minion : 1218.967896, fAtttt : 300.000000
[2019.05.12-10.31.22:730][  5]ARLog: Warning: Minion : 1227.292969, fAtttt : 300.000000
[2019.05.12-10.31.22:731][  5]ARLog: Warning: Minion : 1227.292969, fAtttt : 300.000000
[2019.05.12-10.31.22:747][  7]ARLog: Warning: Minion : 1236.124878, fAtttt : 300.000000
[2019.05.12-10.31.22:747][  7]ARLog: Warning: Minion : 1236.124878, fAtttt : 300.000000
[2019.05.12-10.31.22:764][  9]ARLog: Warning: Minion : 1245.467651, fAtttt : 300.000000
[2019.05.12-10.31.22:764][  9]ARLog: Warning: Minion : 1245.467651, fAtttt : 300.000000
[2019.05.12-10.31.22:764][  9]ARLog: Warning: I dont Find you
[2019.05.12-10.31.22:781][ 11]ARLog: Warning: Minion : 1255.324951, fAtttt : 300.000000
[2019.05.12-10.31.22:781][ 11]ARLog: Warning: Minion : 1255.324951, fAtttt : 300.000000
[2019.05.12-10.31.23:639][114]ARLog: Warning: AIControll
[2019.05.12-10.31.23:639][114]ARLog: Warning: X -3292.500488  Y2247.644043   Z0.000000  
[2019.05.12-10.31.23:639][114]ARLog: Warning: AIControll
[2019.05.12-10.31.23:639][114]ARLog: Warning: X -4.850021  Y-1957.276978   Z0.892021  
[2019.05.12-10.31.23:639][114]ARLog: Warning: AIControll
[2019.05.12-10.31.23:639][114]ARLog: Warning: X 525.393921  Y-1767.250977   Z117.907036  
[2019.05.12-10.31.23:731][125]ARLog: Warning: I dont Find you
[2019.05.12-10.31.24:738][246]ARLog: Warning: I dont Find you
[2019.05.12-10.31.25:672][358]ARLog: Warning: I dont Find you
[2019.05.12-10.31.26:623][472]ARLog: Warning: I dont Find you
[2019.05.12-10.31.27:555][584]ARLog: Warning: I dont Find you
[2019.05.12-10.31.28:639][714]ARLog: Warning: I dont Find you
[2019.05.12-10.31.28:639][714]ARLog: Warning: AIControll
[2019.05.12-10.31.28:639][714]ARLog: Warning: X 961.271606  Y-1030.683350   Z0.000000  
[2019.05.12-10.31.28:639][714]ARLog: Warning: AIControll
[2019.05.12-10.31.28:639][714]ARLog: Warning: X 927.272827  Y-1295.957764   Z0.000000  
[2019.05.12-10.31.28:639][714]ARLog: Warning: AIControll
[2019.05.12-10.31.28:639][714]ARLog: Warning: X -4488.414551  Y650.959900   Z0.000000  
[2019.05.12-10.31.29:639][834]ARLog: Warning: I dont Find you
[2019.05.12-10.31.30:581][947]ARLog: Warning: I dont Find you
[2019.05.12-10.31.31:667][ 77]ARLog: Warning: I dont Find you
[2019.05.12-10.31.32:571][184]ARLog: Warning: I dont Find you
[2019.05.12-10.31.33:554][302]ARLog: Warning: I dont Find you
[2019.05.12-10.31.33:638][312]ARLog: Warning: AIControll
[2019.05.12-10.31.33:638][312]ARLog: Warning: X -180.536591  Y-86.197670   Z17.309174  
[2019.05.12-10.31.33:638][312]ARLog: Warning: AIControll
[2019.05.12-10.31.33:638][312]ARLog: Warning: X -4774.629395  Y2471.736572   Z0.000000  
[2019.05.12-10.31.33:638][312]ARLog: Warning: AIControll
[2019.05.12-10.31.33:638][312]ARLog: Warning: X -281.181915  Y215.159363   Z39.350128  
[2019.05.12-10.31.34:513][417]ARLog: Warning: I dont Find you
[2019.05.12-10.31.35:556][542]ARLog: Warning: I dont Find you
[2019.05.12-10.31.36:639][672]ARLog: Warning: I dont Find you
[2019.05.12-10.31.36:980][713]ARLog: Warning: Minion : 258.703888, fAtttt : 300.000000
[2019.05.12-10.31.36:980][713]ARLog: Warning: ggggggggggggggggggg
[2019.05.12-10.31.36:989][714]ARLog: Warning: MinionAttack On
[2019.05.12-10.31.36:989][714]ARLog: Warning: MinionMon
[2019.05.12-10.31.37:197][739]ARLog: Warning: Minion Attack Start
[2019.05.12-10.31.37:197][739]ARLog: Warning: CollisionCube : JombieCharacter_1
[2019.05.12-10.31.37:198][739]ARLog: Warning: Damage:300.000000 , Hp:700 , ComputeDamaged : 300.000000 
